1.583884455404389602e-01
1.301107784583029614e-01
1.144912077008212459e-01
1.229886685038291960e-01
1.275878333765430583e-01
1.177478691430692698e-01
1.387548236550510128e-01
1.209998887996531769e-01
1.232710549316824861e-01
1.294371044124813519e-01
1.297219504860226968e-01
1.214312211303136824e-01
1.163545384381964309e-01
1.199398612849436746e-01
1.332342539259613878e-01
1.277714011767418223e-01
1.115594719261445988e-01
1.044647708215563631e-01
1.136409845589664985e-01
1.224452621034300137e-01
1.134822945880523681e-01
1.096308359863356063e-01
1.209692088915100133e-01
1.186782891640445758e-01
1.114499595548049671e-01
1.141970943280402329e-01
1.164777013171899578e-01
1.160658058581185426e-01
1.209162631422829176e-01
8.915757234628188255e-02
1.013853720551733256e-01
1.058325328399885301e-01
1.013546445240513794e-01
9.229186276339876316e-02
9.337519395418636403e-02
9.527464987145543851e-02
1.082508005768805931e-01
1.027907223440333723e-01
9.887359653577129648e-02
9.859400110159841080e-02
8.975639655357327273e-02
9.015845610482439709e-02
8.837360199832611229e-02
9.272199219213628218e-02
1.015492555614073977e-01
1.094961328638999198e-01
1.092177544455358723e-01
1.060007678421951011e-01
1.162573869764727680e-01
1.029811179627573015e-01
8.937534025169563412e-02
9.053544434311396050e-02
9.650103979177769575e-02
9.066876555730764287e-02
1.039698719230326418e-01
1.044756599583845924e-01
9.983731777624027526e-02
9.858660104532364354e-02
8.786978254413692346e-02
9.561009476882326164e-02
1.089408655016594202e-01
9.754091378621040920e-02
9.847161855932048957e-02
9.791652198465430890e-02
1.026164513220915592e-01
1.018390289542989297e-01
1.052976865210549506e-01
1.192491513941707770e-01
1.222274570298666208e-01
1.245372171241997672e-01
1.059670175228686756e-01
1.128309928755362457e-01
9.898606207548635294e-02
1.048766450430220071e-01
1.084470445080003148e-01
1.170985557731757665e-01
1.085304144317661007e-01
1.129568604486237138e-01
1.051875312144918417e-01
1.122657764003508890e-01
1.112078549577205644e-01
1.166194505401336734e-01
1.173589523502453352e-01
1.176553266781290574e-01
1.144196456990171917e-01
1.189063064725897900e-01
1.226381805970499228e-01
1.084374972141436827e-01
1.129074248692139293e-01
1.250668562214059532e-01
1.277652995103914224e-01
1.305736697935754032e-01
1.289672453234809724e-01
9.591637793119456301e-02
9.265800682131107580e-02
8.038283375948369891e-02
8.960445946190898070e-02
8.912390490204394333e-02
8.751708561796368857e-02
9.660439768301531949e-02
8.992911950553475475e-02
8.490891705791753230e-02
8.731054990227493651e-02
9.418547175044587882e-02
8.337226456750354564e-02
8.263116965117449364e-02
7.890986647829209555e-02
8.374520372292096337e-02
8.533424371592852886e-02
8.849895630084388121e-02
8.272626524006003457e-02
7.922888846318849876e-02
8.918289553188593621e-02
9.476841186324411193e-02
9.091508639464868091e-02
9.248221795142348711e-02
9.768631933553127700e-02
9.315681097650123366e-02
8.733984479822018421e-02
9.157918791430255667e-02
8.990905312063693366e-02
9.328750525690340800e-02
9.434850351345151764e-02
9.092226967716135477e-02
8.485696816162753564e-02
1.204284374551660430e-01
1.242580536925190077e-01
1.274922835332257809e-01
1.393210428999266948e-01
1.157901143474059091e-01
1.212936415740996920e-01
1.178615549105731242e-01
1.207185376702177432e-01
1.164891234404674958e-01
1.188005023726826925e-01
1.172970236157710316e-01
1.179081015200127147e-01
1.010229505705084324e-01
1.122788921695661857e-01
1.061912776242499856e-01
1.170479213066872443e-01
1.217485402926864746e-01
1.212328595128032011e-01
1.146894971575654065e-01
1.046678771572564781e-01
1.038353979642488989e-01
9.987851142692612261e-02
1.079182063081145226e-01
1.023562712518228945e-01
1.095556992884567371e-01
1.092797696463708446e-01
1.134012025943472723e-01
1.084181994792943193e-01
1.120545950289720399e-01
1.085679977212265779e-01
1.077100790150396781e-01
9.672512321300782978e-02
1.001244798660091695e-01
9.425495944150216743e-02
9.698882817800273670e-02
1.012302687783572519e-01
1.031454263197035121e-01
9.676659435797714537e-02
1.016160392763556797e-01
9.487545356662832607e-02
1.183321981180757987e-01
1.114895224159684339e-01
1.033266315400400009e-01
9.322923091793372530e-02
9.355280641210386716e-02
9.641626539672619456e-02
1.008521336731474510e-01
9.658677753954116041e-02
1.008963072177397613e-01
9.768415629661578170e-02
1.071638743798065257e-01
1.039782452206843566e-01
1.007725754475700813e-01
9.695613347291891226e-02
9.345097870847915433e-02
9.661091632027289655e-02
1.054923651600847972e-01
1.037729098292356628e-01
9.507826344169467703e-02
9.294986159500359668e-02
9.683676579362936188e-02
9.102898436869172327e-02
9.189452453004187671e-02
9.796702808148631536e-02
1.113880533103819015e-01
1.230725952894805575e-01
1.247124825582340557e-01
1.092774044598204819e-01
1.167338404870250645e-01
1.173369057643590396e-01
1.191218192964796502e-01
1.207318215714019427e-01
1.234200195765211561e-01
1.199150471343184837e-01
1.257963869632114373e-01
1.243854264986923031e-01
1.309122050578111485e-01
1.401460510805689619e-01
1.291354779324553059e-01
1.345092340780930373e-01
1.336597924435247164e-01
1.354724139197693578e-01
1.321541612263699983e-01
1.378032615071863864e-01
1.353603697454295596e-01
1.215216637538080180e-01
1.282121392862779763e-01
1.264281671569991161e-01
1.278770725814641629e-01
1.366951628154227660e-01
1.326072836762871299e-01
1.298266938141654780e-01
1.299107897687469815e-01
1.183457504759821977e-01
1.215538089639446317e-01
1.307066994727966447e-01
9.264986419489680547e-02
8.715575552595518360e-02
9.232371999158298093e-02
8.271209939781197507e-02
9.685639589565289698e-02
9.629917718105129865e-02
8.306572497958804313e-02
9.138524131096201208e-02
1.028839444575298800e-01
1.065033474376788358e-01
1.023572084258246306e-01
1.068840149243205362e-01
1.125876157375855502e-01
1.001329293040343904e-01
9.394324369247473994e-02
9.543407782720242372e-02
1.011949116501630053e-01
9.005830064293107728e-02
9.504187954344348044e-02
9.558488937377682126e-02
1.037814280807444617e-01
9.844517745663008967e-02
1.107777806701953915e-01
9.651533576292756211e-02
9.869470513615463680e-02
9.733688053511604932e-02
9.328293099211419637e-02
9.399367724572461891e-02
9.586978086690084444e-02
1.011863766551298338e-01
8.663438325463432288e-02
9.791680571605479444e-02
1.148553783392374933e-01
1.166785522741613512e-01
1.144615421484742324e-01
1.158276944002201853e-01
1.080717253905836561e-01
1.013025417226454811e-01
1.108219228881954371e-01
1.199323884314771049e-01
1.165574400194337168e-01
1.029647448443021529e-01
1.033913719864962416e-01
1.010778921159948551e-01
1.139363811821667155e-01
1.104364829656123703e-01
1.152947720826521527e-01
1.155071089846106125e-01
1.063715807251299078e-01
9.432988023172787784e-02
1.042046273925637118e-01
9.360933974094941268e-02
1.024831118546025016e-01
1.001435280619218798e-01
1.156955015101120282e-01
1.103031003366896634e-01
1.105121064608367148e-01
1.100762148365139470e-01
9.800622263123441591e-02
1.070902017381630128e-01
1.124326536192113701e-01
1.092685301019050981e-01
1.125030660106983993e-01
1.155961040766483039e-01
1.020357789890016936e-01
9.548155036731507950e-02
9.508142639388264539e-02
9.987772458327823233e-02
9.928305459767308716e-02
9.272651828656379436e-02
8.936254735868584542e-02
9.328418319519622692e-02
9.228758886434271225e-02
9.875230770801980695e-02
9.624289888235722235e-02
9.004870076802246048e-02
9.368593967653351950e-02
9.795267193117755677e-02
8.772893836249168187e-02
9.340338799504557810e-02
1.119230890635618952e-01
9.160638727823396110e-02
8.734271027379897356e-02
9.898003223024731678e-02
8.626637701528569457e-02
9.141743265173556121e-02
9.367227365777491821e-02
8.834663239484184805e-02
9.419973359950659098e-02
9.317734009373880577e-02
9.486434314795447187e-02
8.908553390808165995e-02
8.357822569209133468e-02
8.650478973950184725e-02
8.957009061523012183e-02
9.523699147544847921e-02
1.250771271866885082e-01
1.214514543307481098e-01
1.252153439262279622e-01
1.192103220464155039e-01
1.178772181214658710e-01
1.259280719315876429e-01
1.312576378029128299e-01
1.122670959920162304e-01
1.173024527014881330e-01
1.283056536182225760e-01
1.326777284361410347e-01
1.215581312849938894e-01
1.295064343638532844e-01
1.265727068348088957e-01
1.345819595765636589e-01
1.308383164745560712e-01
1.379046942379688889e-01
1.334228844662306845e-01
1.255354005484963786e-01
1.248942869145482915e-01
1.287011279147507736e-01
1.317283788566860903e-01
1.207851270363371754e-01
1.328936940119022914e-01
1.235594054075801751e-01
1.313616820827409881e-01
1.163149690824606813e-01
1.327490413317306828e-01
1.196638612972247551e-01
1.287700953452469155e-01
1.236055812719235175e-01
1.351069243236739381e-01
9.738011672397492435e-02
9.121166096795832456e-02
8.847594139278756875e-02
1.025766879080530075e-01
9.123207137498867692e-02
9.524613678319428234e-02
1.080719824970403087e-01
1.077266786886226929e-01
9.714139302672666898e-02
1.318356698629912782e-01
1.121411558215638371e-01
1.044405123428759907e-01
9.483019607485695945e-02
1.034971201615087766e-01
1.031179649893427114e-01
9.193113650157927474e-02
9.518697589724543773e-02
1.060758236706876440e-01
9.793973207030272354e-02
1.024213210027611620e-01
1.059564345989072037e-01
9.627849417748039762e-02
1.062681848297687137e-01
9.910753377223861793e-02
9.676806726349908294e-02
9.144503964044767286e-02
9.561799005664456397e-02
9.608497337926795445e-02
1.018050647904951839e-01
9.260900288306746220e-02
9.366268342727035456e-02
9.341456809290048235e-02
1.081637839941111123e-01
1.085172782382627654e-01
1.141284734550410407e-01
1.142812648314645713e-01
1.127095017529128607e-01
1.144373741011432133e-01
1.141861214862141677e-01
1.239908938834576035e-01
1.230521578287729206e-01
1.131964750208537679e-01
9.991966471377064507e-02
1.082586197516527682e-01
1.127414043104977004e-01
1.163825275686733163e-01
1.127965876143402768e-01
1.209641789732583544e-01
1.119348261035733316e-01
1.118479481626536848e-01
1.163112807121521042e-01
1.078551923657391082e-01
1.062888609600913525e-01
1.043348036751170077e-01
1.123150574906973675e-01
1.048214984430581309e-01
1.030093135092430556e-01
1.083386306773743979e-01
1.077167928471156610e-01
1.111364984943562506e-01
1.154966822781533509e-01
1.212708785636336523e-01
1.222314383593834097e-01
1.144301545270502152e-01
8.472084896357713613e-02
9.118702599114260343e-02
1.002618020010436206e-01
1.005853636382053884e-01
9.754684024422952127e-02
8.834715581792612626e-02
9.285705743513868182e-02
1.324646430864798441e-01
8.909714022098505493e-02
8.627257920057886109e-02
9.247160923657582465e-02
9.830302753819278316e-02
9.818072045980599794e-02
9.648215430776724277e-02
8.973611888809887582e-02
8.781625468814760471e-02
9.588177235479347638e-02
9.789997955421979314e-02
9.569132022518092584e-02
9.555280380022872222e-02
9.019579659580875819e-02
9.140348462358303949e-02
9.458742867497291207e-02
9.024794449027602472e-02
1.029004631186920954e-01
9.710491905134603641e-02
9.709534031356301109e-02
1.040545453196030090e-01
1.081632114352755469e-01
9.391899661416920619e-02
9.328158379280677981e-02
9.683499712221256550e-02
1.235250391248002011e-01
1.158675818868028784e-01
1.358601596879408235e-01
1.321893464725727441e-01
1.273151798661107947e-01
1.148250945304728904e-01
1.198803913632983109e-01
1.278408616107993556e-01
1.215545749922715413e-01
1.171624501498790688e-01
1.096875902440444389e-01
1.131915196470181934e-01
1.010359791203520735e-01
1.024255794300187039e-01
1.185262790411697881e-01
1.176507832279152233e-01
1.116293108030535774e-01
1.114575499749659582e-01
1.170486790001548788e-01
1.016855703937235844e-01
9.799600646110431801e-02
1.015032212126038835e-01
1.071792269320771124e-01
1.111727251617458806e-01
1.306558754406115797e-01
1.095854038122286295e-01
1.131066565448427957e-01
1.189236313222011843e-01
1.134787160237626658e-01
1.142874940389000393e-01
1.033561774478767986e-01
1.119059596227401643e-01
1.157377867428720786e-01
1.128964503909083428e-01
1.011778306527872512e-01
1.034132945598887909e-01
1.031592791424130046e-01
9.966952172045936975e-02
1.016055157043597168e-01
1.006127128469417042e-01
1.017105686430018335e-01
9.793386155618753752e-02
9.416002721866621739e-02
9.978977977464910387e-02
9.257170274914224006e-02
1.004822249995217520e-01
1.002257476058550090e-01
9.042215425569716247e-02
1.394840521028163360e-01
1.064061104090159998e-01
8.863727915552689629e-02
8.998356120459986840e-02
1.005298276069888780e-01
9.856513231238528405e-02
9.222260507758389680e-02
9.934406779399111709e-02
9.311060392311551470e-02
9.743326381171865669e-02
8.314674200894449363e-02
9.960179998660236012e-02
9.021413240260171829e-02
9.298252523446656759e-02
9.484634481961876085e-02
9.391277367202244264e-02
1.145355750185821087e-01
1.106663016164557006e-01
1.065774860456937950e-01
1.062959032721118441e-01
1.134372481958426382e-01
1.151290315758493055e-01
1.232814799685304774e-01
1.178375121710499435e-01
1.182007317408197700e-01
1.130385239068427972e-01
1.228705629863963977e-01
1.077415231978114118e-01
1.112790431134720315e-01
1.138775294225645301e-01
1.129719049027033961e-01
1.202174291240605958e-01
1.151615533414087206e-01
1.221819290427481608e-01
1.165646413832547579e-01
1.189870223889914341e-01
1.194289269363913164e-01
1.227361471266874837e-01
1.302684899948654829e-01
1.215960382056353872e-01
1.167263415430137841e-01
1.284022923416248685e-01
1.267087874352209598e-01
1.271603825866531312e-01
1.207300295031445564e-01
1.139732019047023925e-01
1.265616261792634201e-01
1.230126983886679071e-01
9.885528512611843621e-02
9.535536923502027640e-02
9.705648222039188477e-02
9.480245516583583887e-02
8.544513655637715754e-02
9.999290429605636743e-02
9.617219926820019804e-02
9.566737108425607539e-02
9.138051634398401679e-02
9.119160559052842674e-02
9.539048571538939758e-02
9.476652377482651379e-02
8.362101802753478530e-02
1.129405468802760354e-01
1.005209413435387555e-01
9.548516569283263533e-02
9.258412313018134221e-02
9.620948396253163615e-02
9.963312149523068095e-02
1.001072383809084448e-01
9.213951273751504190e-02
9.091294212642495043e-02
1.041545458114141870e-01
1.038004290372048499e-01
9.526350471963748734e-02
9.742738225196796720e-02
9.672166305911633621e-02
9.168998382849795348e-02
9.751350905463064545e-02
1.006286033835793042e-01
9.777416730036692094e-02
9.047913526764825298e-02
1.203759243266755014e-01
1.160828240849902382e-01
1.143388567971839603e-01
1.089261248963255407e-01
1.125154053119626907e-01
1.084575954658583974e-01
1.129956330098979278e-01
1.111460964045098143e-01
1.113688069913088413e-01
1.058248845928355664e-01
1.088502392178744838e-01
1.069003090854104554e-01
1.147197377809245911e-01
1.203109107253279852e-01
1.074593166978321523e-01
1.066289993930217006e-01
1.039351371174650901e-01
1.080802191376259158e-01
1.096246108248230822e-01
9.954307069543083530e-02
1.156537557480432354e-01
1.167752263340456204e-01
1.329083309359440079e-01
1.152467166559120598e-01
1.126574991816208515e-01
1.264081893109563481e-01
1.224095327628436369e-01
1.223428700883570502e-01
1.256749819892473419e-01
1.314777627538987193e-01
1.143676967768445102e-01
1.227783695385708390e-01
9.830150680664136165e-02
9.274645611433898762e-02
9.637013187777400403e-02
9.183089176268711962e-02
9.347851162799307445e-02
2.711643796717900234e-01
1.021264737064008499e-01
1.006227701899026911e-01
1.041302344586422235e-01
1.007713130550704772e-01
8.763489206035990353e-02
9.360980010292213604e-02
9.820255314089132437e-02
8.868256493278822705e-02
9.014131215619844428e-02
9.111110324095902935e-02
9.024601471140636377e-02
1.064870680763890382e-01
9.655786846531040635e-02
9.455538043886919930e-02
8.924939793990373238e-02
9.256271280298247750e-02
8.094965694592951011e-02
8.981003202602394486e-02
8.731465098132197566e-02
9.541514119101537905e-02
8.849805650091477349e-02
9.959822919397516572e-02
9.232369236739590423e-02
9.342054491400833549e-02
9.086304964236910364e-02
9.348389282640036380e-02
1.372150227929666289e-01
1.244077262789814869e-01
1.203942149726726363e-01
1.267548736249887731e-01
1.287721693871515805e-01
1.353843294721552293e-01
1.363413098804270862e-01
1.409549662938085202e-01
1.394973217796879605e-01
1.275951629463445147e-01
1.299665495979094310e-01
1.287022528696617762e-01
1.340831030850437033e-01
1.287698592992657376e-01
1.187591419141374588e-01
1.237571239896216035e-01
1.210323169991746745e-01
1.194796813285374792e-01
1.243108575129024534e-01
1.142410244841144118e-01
1.133416466401974965e-01
1.217102309791223691e-01
1.234232192805953671e-01
1.194059573004088853e-01
1.260853944999502929e-01
1.107832399975376136e-01
1.079270442525324947e-01
1.145408817562290904e-01
1.042618112630233351e-01
1.075973631131479785e-01
1.236225295794316087e-01
1.190093117774620596e-01
9.299330976829631168e-02
1.023233291009758572e-01
8.776893085789483351e-02
1.043497702238247865e-01
1.020682338978255582e-01
9.316075415672579740e-02
9.189174905656635750e-02
9.706502574074775402e-02
9.836230317903769949e-02
9.680438251694277463e-02
1.031490939979136101e-01
1.004098059266391452e-01
1.144042282988165793e-01
1.069076277642522915e-01
9.760872201151647720e-02
1.035704016581767001e-01
1.004348557579926304e-01
9.909288805065905037e-02
9.931918710076163836e-02
9.280002202081147344e-02
1.002692694455713102e-01
9.798143994767531673e-02
1.073874727608367108e-01
1.113973598134188892e-01
9.958023460033713081e-02
1.000303596061534323e-01
9.733453538692013463e-02
1.045056560994676448e-01
1.025960672768086585e-01
1.108198891841859490e-01
1.095324163969686460e-01
1.005350563034102668e-01
1.277030520509077338e-01
1.288833711403013504e-01
1.216570604052502336e-01
1.188991788802838262e-01
1.280265248297100533e-01
1.191655468054813038e-01
1.305039416291950971e-01
1.299416899235990575e-01
1.155659554793611321e-01
1.195560073636759146e-01
1.111006664097757141e-01
1.168648980897927930e-01
1.097333849167993342e-01
1.125542666417569809e-01
1.133305325201972857e-01
1.236762930417778100e-01
1.120896027992788480e-01
1.059255882483913086e-01
1.113318075001122898e-01
1.204958515933495927e-01
1.226957363547921120e-01
1.159033398824591832e-01
1.109851398378404880e-01
1.238470015803691676e-01
1.107717296360624104e-01
1.170818062852806846e-01
1.089833287475738127e-01
1.082512210203844666e-01
1.083495373037986625e-01
1.014085750277330389e-01
1.192636185686034855e-01
1.125807303593913816e-01
9.886398059681414385e-02
1.617049097694548132e-01
1.014172723591666853e-01
8.917152002283111611e-02
8.377138613269222156e-02
8.232512913683633082e-02
9.624690513169266437e-02
9.987206357416079927e-02
9.801682499590448627e-02
1.060753634113612981e-01
9.665839415883667463e-02
9.202417213912256200e-02
9.727635486006067089e-02
1.036767345430723575e-01
1.049706204499851053e-01
1.016284759658292874e-01
1.096483310973711545e-01
9.812697177993404130e-02
9.052410035738765737e-02
1.155153969721293972e-01
9.375994663297487763e-02
9.870673581539808616e-02
9.710969056863247295e-02
8.995717832893197763e-02
9.918812767235943295e-02
9.314327081092825533e-02
1.002250925153196776e-01
1.933171927910249388e-01
9.888492516007023336e-02
9.511404320634779530e-02
9.904975497154752673e-02
1.035746403831758061e-01
1.185876499884189472e-01
1.285393715820790095e-01
1.933789031727148888e-01
1.250659212680605425e-01
1.197939466995930208e-01
1.155568770196617467e-01
1.121520623853583948e-01
1.156327369663400495e-01
1.178783923749119611e-01
1.206519384943121054e-01
1.100940945329909465e-01
1.123856860988891732e-01
1.107809837328409125e-01
1.010312779377724041e-01
1.153486662866070739e-01
1.160720466862533995e-01
1.148332748152371130e-01
1.169059820495591123e-01
1.067485690442157714e-01
1.140733695508365092e-01
1.089934220041695462e-01
1.098224546001798918e-01
1.133070499282639310e-01
1.061229784316169156e-01
1.135636179620926056e-01
1.179174019476888075e-01
1.278138559648351325e-01
1.164221256353050044e-01
1.209216143092417123e-01
1.115268822414102745e-01
1.077410779640227967e-01
1.015711797227158153e-01
8.268117404260420800e-02
9.664693280890922222e-02
1.030422890293289651e-01
9.608963805159127791e-02
1.033492982774322499e-01
9.805074705275783342e-02
1.018885111368090512e-01
1.002984391179573553e-01
9.808576500115455399e-02
1.021405085307624666e-01
9.408159422689868490e-02
1.066850387674078970e-01
1.008360847461271526e-01
9.677494907390048196e-02
1.052717145171522539e-01
1.046464079397012858e-01
1.029609958089849064e-01
1.008024208549416212e-01
1.084328224852594696e-01
1.446426465270128081e-01
9.405341478737314076e-02
9.989177695964251980e-02
8.968999253299757279e-02
9.997382287018349856e-02
9.548359439227099843e-02
9.360408219907988270e-02
1.018011633292928153e-01
1.001176797584693717e-01
1.014796324028044705e-01
9.532293982787784503e-02
1.074133322419945358e-01
9.302891060358951802e-02
1.155062579884498924e-01
1.173705335945637723e-01
1.151595836866703138e-01
1.121355579966173133e-01
1.152400408760910072e-01
1.025821286260882592e-01
1.193182703546636914e-01
1.166795132702395099e-01
1.137499457806402103e-01
1.261010256900955695e-01
1.228640563895213311e-01
1.231329424583710308e-01
1.307972303414678961e-01
1.285606846433599570e-01
1.260929368244735060e-01
1.237937581243033075e-01
1.248465955402007221e-01
1.360316217691361906e-01
1.303772201324114866e-01
1.271525406983651796e-01
1.275666441287692521e-01
1.231828203219277051e-01
1.183009568485982738e-01
1.171674683982769222e-01
1.223831817689138707e-01
1.183940602242333079e-01
1.127652935148676372e-01
1.245100008078538628e-01
1.326886170261449005e-01
1.471541079233956439e-01
1.330576057249310273e-01
1.235649710304077137e-01
8.970066086328068455e-02
8.623637463167894979e-02
9.846839159381279294e-02
9.368462963178138259e-02
9.655919748136010394e-02
8.783985046902356708e-02
8.618381333623384433e-02
9.716093522795513082e-02
1.009758834670513306e-01
1.026699251530943380e-01
1.057185214683370039e-01
9.791254442427728411e-02
1.076113178639123147e-01
1.005419951869528788e-01
9.679576036744935719e-02
1.073549852391399995e-01
1.061472698658643549e-01
9.904328628528523415e-02
9.664573807064273658e-02
1.005523417477204723e-01
9.444909769729725735e-02
1.055871520882206982e-01
9.035328443781340257e-02
9.529769107600946643e-02
1.240225242125234245e-01
9.987575227975463432e-02
9.260892652018822002e-02
8.847236558386667449e-02
9.320268200920203694e-02
9.906319535922383790e-02
1.033393024412911226e-01
1.057575793866258884e-01
1.086400309860034302e-01
1.128385762141360382e-01
1.200730131338272610e-01
1.219427565833934163e-01
1.103074774608403530e-01
1.214685816427251985e-01
1.327433883554465233e-01
1.179855038435587977e-01
1.140540033802023567e-01
1.153133219947154176e-01
1.076750203645366472e-01
1.001246472929235021e-01
1.051024594612458840e-01
1.130725259998377058e-01
1.165328016339627765e-01
1.269275099443749333e-01
1.127441398550758367e-01
1.044222290394871688e-01
1.121062060419215356e-01
1.137643576975325282e-01
1.174598877768670280e-01
1.224536720577393129e-01
1.198752052026768877e-01
1.084960253829374971e-01
1.153329572157037741e-01
1.201521429847871303e-01
1.102572828908831015e-01
1.032819119732343582e-01
1.259069773662399305e-01
1.192270780110793182e-01
1.155227357426208690e-01
1.286235246889751160e-01
1.071450039501298523e-01
1.332853215317619799e-01
1.020890850772329106e-01
1.003766145153468237e-01
1.057056215367632585e-01
9.877738373918956705e-02
9.105439730258686748e-02
8.907662788620704375e-02
9.777048795651149815e-02
9.599794355658097800e-02
1.136190134133416435e-01
1.440204495933297690e-01
1.180352725977169837e-01
9.031558210223683547e-02
1.015692177572697641e-01
1.004218406691814447e-01
9.203726646933113598e-02
9.351241967672323241e-02
9.726728607572819596e-02
1.076078558021444920e-01
1.012361946512741334e-01
9.874040918022623792e-02
8.875742424275404052e-02
8.820179812487641269e-02
1.014295807130365795e-01
9.035218365017552711e-02
9.371608966946151642e-02
9.314839429319556052e-02
8.651606697772114274e-02
8.946769934650622424e-02
9.398913755025671557e-02
9.818788117212480515e-02
1.273938045152834819e-01
1.293669368327284019e-01
1.716247235368256185e-01
1.257143555327949469e-01
1.270342707247162917e-01
1.265772491874685990e-01
1.298177419496870377e-01
1.333251250758670792e-01
1.219962220341642423e-01
1.263154887238445157e-01
1.169435768440852674e-01
1.238064223318060125e-01
1.223431557621118132e-01
1.211983123488541425e-01
1.284441663074537276e-01
1.180605231976749048e-01
1.199191041493674198e-01
1.159252729923155451e-01
1.144297951232105259e-01
1.265809523416306370e-01
1.257713063598510095e-01
1.196423198960051559e-01
1.270403301108022909e-01
1.611481790624645916e-01
1.349170154666577415e-01
1.263805427094293887e-01
1.133937744185635338e-01
1.083302432759240819e-01
1.259036084726134486e-01
1.163442694496281682e-01
1.225097715280413641e-01
1.217588515000746635e-01
1.025114853245735896e-01
1.072536384915335483e-01
1.116777230613562877e-01
9.841410721501664405e-02
9.650560998078713815e-02
1.050348760996723668e-01
1.020478298731024996e-01
1.035819675692805780e-01
9.538005426752763083e-02
9.924246482472776076e-02
9.071300922184230564e-02
9.113858915029787733e-02
9.116687559133326846e-02
9.681981028930544686e-02
1.006466944196241914e-01
9.630317505880672813e-02
1.036687199735270015e-01
9.708566070297844353e-02
1.021983210259577168e-01
1.000069526608706044e-01
1.062771448932644247e-01
9.785067357307539182e-02
1.031232282951551199e-01
2.237526118528540553e-01
1.464336723168028209e-01
9.586880693884211602e-02
1.078740009299123531e-01
9.905547090828406565e-02
9.299388070721076316e-02
9.763232425247370116e-02
1.064034588317070706e-01
1.062601534395791331e-01
9.999636647909522502e-02
1.126946337492137351e-01
1.097065333355391747e-01
1.111168833686907720e-01
1.072234765440015919e-01
1.140518800835551849e-01
1.167447864420110004e-01
1.132722999792229873e-01
1.200182646106114220e-01
1.072575759616108265e-01
1.109382467037040854e-01
1.161188240743067646e-01
1.087366214063903158e-01
1.203675003607377614e-01
1.230820476294189614e-01
1.269490700859665644e-01
1.268932735973613002e-01
1.297635122032640143e-01
1.180520130269559625e-01
1.103473696543196408e-01
1.185152911722072433e-01
1.075176708187915164e-01
1.288810855259542865e-01
1.239667933370373343e-01
1.244969969414950056e-01
1.203591362195696179e-01
1.118318944955215832e-01
1.108135609587073828e-01
1.224091101067477927e-01
1.270896510931994183e-01
1.125586771671077263e-01
1.326982311982956020e-01
1.175037736502284186e-01
9.016199626359287789e-02
9.854613817473280302e-02
1.020655305056723111e-01
9.775697742198304063e-02
1.059541720818969746e-01
9.459815426592647902e-02
9.954029890355207966e-02
9.863097190914307810e-02
8.960242916076664732e-02
1.096986375395092861e-01
1.001278748411022351e-01
8.860660221874151754e-02
9.909586469657644114e-02
9.424786913691861334e-02
9.254474149898252178e-02
9.732580736989844550e-02
9.547446529604479426e-02
8.590717866077721143e-02
8.867167572340618753e-02
8.856873890146119144e-02
9.451012521997212423e-02
9.924891426942068773e-02
9.874607171762725399e-02
1.052318810681481392e-01
9.491627961819072701e-02
9.513082310168927136e-02
9.818259171731673340e-02
9.799809746113340159e-02
1.044649684830382952e-01
8.593141003131336830e-02
9.247219171757506406e-02
1.215689588231662482e-01
1.166945245566261419e-01
1.218019299446845977e-01
1.229875458746465811e-01
1.223412985053411867e-01
1.224263239845962137e-01
1.244301283354762172e-01
1.163594030344707597e-01
1.166055265512390415e-01
1.063582635446723434e-01
1.171716914022288558e-01
1.066097891911766266e-01
1.232722139794888011e-01
1.453664032330382883e-01
1.228461512894683250e-01
1.245394028813898435e-01
1.276421699671378696e-01
1.349440882487384641e-01
1.236116043796134517e-01
1.172241025533058423e-01
1.137462401743649654e-01
1.202180405347103298e-01
1.200639877126392224e-01
1.154658052171576854e-01
1.205124940028851344e-01
1.223631776184884029e-01
1.191280438509692841e-01
1.179302143664608532e-01
1.129372627604434964e-01
1.096981372590863646e-01
1.268418133036716688e-01
1.219932842940472106e-01
1.163819510022180009e-01
1.181048456981282219e-01
1.044439713348719045e-01
1.074025726632500399e-01
1.051473039883122212e-01
1.001897015240313105e-01
1.028947864755237890e-01
8.938200852351041448e-02
9.913964865107199875e-02
1.056959928094307333e-01
1.032457866457145157e-01
1.047418226187446927e-01
9.704497353438279461e-02
9.494061493453403999e-02
1.004541512186327284e-01
9.380187900763373166e-02
1.030770439822456669e-01
1.002539824898071724e-01
9.903180596104975419e-02
1.000405002838873764e-01
1.015351650359827412e-01
1.088593321257587954e-01
9.822204968985900897e-02
1.017246277417868383e-01
9.614826927494267428e-02
1.002932478773206765e-01
1.030381836137772289e-01
9.792519680057246156e-02
9.880713455312709059e-02
9.717476114114938224e-02
1.006606128132156164e-01
1.082043693993525180e-01
1.226294598098118388e-01
1.238420972645249557e-01
1.084864923753770249e-01
1.083828460743147259e-01
1.150131842234722174e-01
1.018417157196658679e-01
1.059426061728086232e-01
1.180799251754340029e-01
1.298301120332122638e-01
1.238693291765924631e-01
1.083559795295645500e-01
1.104362459498983845e-01
1.144867989136824915e-01
1.072328801135608856e-01
1.128665332879198041e-01
1.291245438155136926e-01
1.197054398115589002e-01
1.178209210702661769e-01
1.238343297757090455e-01
1.256830745101560898e-01
1.073737337065109737e-01
1.236427167115504017e-01
1.244653448260641532e-01
1.294751696912860017e-01
1.213221245216738325e-01
1.107196549760513238e-01
1.148704853199369047e-01
1.182175819593302979e-01
1.211753320606841627e-01
1.119226528924992109e-01
1.056288660065349133e-01
1.186964842369170742e-01
1.104178379405365701e-01
9.739824471397635908e-02
1.036968043318684113e-01
8.925068579216891007e-02
1.090441902831763149e-01
1.022418551675331744e-01
1.003197262555983044e-01
1.063984105590765339e-01
8.972426612980870242e-02
9.167029302876124330e-02
1.006988370838938912e-01
9.450588405256452051e-02
1.048998847214202418e-01
9.808789789376451407e-02
9.677575290458807766e-02
1.137406852515911726e-01
1.079403037349615929e-01
9.690036571064516990e-02
1.020355032385398542e-01
8.560206535700075337e-02
9.492281761412342533e-02
1.014132284023380598e-01
9.911101041164528669e-02
9.822372237484731927e-02
1.005135425765573826e-01
9.400928514312620332e-02
8.972603367969118893e-02
9.098747461590329932e-02
1.007945580033748484e-01
9.671790466156932053e-02
9.523113784820411154e-02
1.100142556563053625e-01
1.225177906540777101e-01
1.164356536677892684e-01
1.282661214813588246e-01
1.246235511994014666e-01
1.259839792150719839e-01
2.395739121970486829e-01
1.347385727963446300e-01
1.312187480365956394e-01
1.632558801744242172e-01
1.566837276960680314e-01
1.513346343060692767e-01
1.588217018491520360e-01
1.368249249393596600e-01
1.344068953180980741e-01
1.271236371152461575e-01
2.062034038736184072e-01
1.069713348238139766e-01
1.256776949596693504e-01
1.296468525163515240e-01
1.256679320436502878e-01
1.187487179262351755e-01
1.184305738433197447e-01
1.153954877501104648e-01
1.161277925615951112e-01
1.141785921082926619e-01
1.299633492754064812e-01
1.149499974157343063e-01
1.127734471816292106e-01
1.175794721858681308e-01
1.317993944992936206e-01
1.290429163950238267e-01
1.189794843682585590e-01
9.862896812575536187e-02
1.003182610147251574e-01
1.095036315699015467e-01
1.010217624250046853e-01
9.242289039439856302e-02
1.101642376301900095e-01
1.071064904064500667e-01
1.030308550803129136e-01
1.135691414997259258e-01
1.194288834276106825e-01
1.102911016924315313e-01
1.009545977099504388e-01
1.089808691154482145e-01
1.018843020544677042e-01
1.141156277284891829e-01
1.111440102084030324e-01
1.052105880169115631e-01
1.017772153101442756e-01
1.103326444737739581e-01
1.158968766926175287e-01
9.606722090032759898e-02
9.292615918097532623e-02
1.014479964146968172e-01
1.111220129218487146e-01
1.022768232500997632e-01
1.058366131529161897e-01
1.060634029602574857e-01
9.397187988877629683e-02
9.873511799704144665e-02
9.647470257475573852e-02
9.704934718077513900e-02
8.471920553102516016e-02
1.108274149755769517e-01
1.218882047501631538e-01
1.439217411808372815e-01
1.490274039250851223e-01
1.219344382488817546e-01
1.273861380178844260e-01
1.136814174241143477e-01
1.208311341136183020e-01
1.319791349117971913e-01
1.372681275459167460e-01
1.331410193842476053e-01
1.280547314381878521e-01
1.268726982932274761e-01
1.218633120029916916e-01
1.314887887243074982e-01
1.148457639196404922e-01
1.265730063845485476e-01
1.256688210340162759e-01
1.254409537536600172e-01
1.255242436120442284e-01
1.222733297380861756e-01
1.287404081743367679e-01
1.397091186607574975e-01
1.424786077557632369e-01
1.299585272934337954e-01
1.255244406092278497e-01
1.353555074972949968e-01
1.281916192762522777e-01
1.141090444530289127e-01
1.211930766439609508e-01
1.205449978498124297e-01
1.228587149044539639e-01
8.986367207298914805e-02
9.779743845072196018e-02
1.043151113197246654e-01
9.785968139672855670e-02
1.008575764963001442e-01
9.739836470330735796e-02
9.428543248129181431e-02
1.029490430784411464e-01
9.986663226873300492e-02
7.952956647947478919e-02
9.044787666534372106e-02
8.270402217724512339e-02
1.128488163115231313e-01
1.633896139852099028e-01
1.188989378256403440e-01
9.947930992612920298e-02
1.468524974953208384e-01
1.032841260877683798e-01
9.861956715475519997e-02
9.175829971820144426e-02
8.999224415489165407e-02
9.270964819737548268e-02
1.006081035213808039e-01
9.629259329346417928e-02
1.021365189081592934e-01
9.661189128807236293e-02
9.372476707213428515e-02
1.076703969936374239e-01
1.059265062153610382e-01
1.032210007644634303e-01
8.876530493347932482e-02
9.642953829669209664e-02
1.150356416392050163e-01
1.223636280025069550e-01
1.135850540679487208e-01
1.053988323846191538e-01
1.208502035552575099e-01
1.074995951309414555e-01
1.071464648794034913e-01
1.087572260855023121e-01
1.142166915482849820e-01
1.213967901613131478e-01
1.115135681949826346e-01
1.016505169690647553e-01
1.093555644303549068e-01
1.070906043054636880e-01
1.096418078277020119e-01
1.210645408345655677e-01
1.129227859328637840e-01
1.121615813001500400e-01
1.102788584646281905e-01
1.043399002808834408e-01
9.708026115716239524e-02
9.550650949394230704e-02
1.004828473442239273e-01
9.954918488769912144e-02
1.126498424872545562e-01
1.115706848400963153e-01
1.089244376435486023e-01
1.015689009217125155e-01
1.206596688491482910e-01
1.150932845426021756e-01
1.141130999955989600e-01
1.142495733562219201e-01
9.931775390482477928e-02
1.035644107220694832e-01
1.020014095507735669e-01
1.111937690704020987e-01
9.760765404412954926e-02
1.015654314657836732e-01
1.094178417137283005e-01
1.080446227469647330e-01
9.902350445560144376e-02
9.699751863450586931e-02
1.092969594909862369e-01
1.115221721529562338e-01
8.894090606854447578e-02
9.428943050057810027e-02
9.940496311734221824e-02
9.874991224212911756e-02
1.028537803663355232e-01
9.236590215572428042e-02
9.570086161436935912e-02
1.035088430780580354e-01
1.044978170795857614e-01
1.021151150445289979e-01
1.013300017335396347e-01
9.550805719560739870e-02
1.178069634129488563e-01
1.035277850436026464e-01
1.065136219723807898e-01
1.042817060938613649e-01
9.026976039131862084e-02
9.622806152582967509e-02
9.262602666546060348e-02
1.029171041817945609e-01
1.314388235650705561e-01
1.186416630962719709e-01
1.174508251446201579e-01
1.181374847756113677e-01
1.183394561002843182e-01
1.221965490253991149e-01
1.165080644143418470e-01
1.158755332170992441e-01
1.173250447713204830e-01
1.236497120952432666e-01
1.372943895317616236e-01
1.225487767254792859e-01
1.152434696388245083e-01
1.201636296773409829e-01
1.148346455140050459e-01
1.135762488204693499e-01
1.326275609959500501e-01
1.212697093919104241e-01
1.375725718313832446e-01
1.391172629083811951e-01
1.211177054411546050e-01
1.203251495538398552e-01
1.309415323564567801e-01
1.176486939804412823e-01
1.185551266953784461e-01
1.260870447580860199e-01
1.257742385803234109e-01
1.256959862022948848e-01
1.272941108123631093e-01
1.466784111688618775e-01
3.005039764577747685e-01
2.700565287943678117e-01
1.119079155611197168e-01
1.062987993457961827e-01
1.025891193376364391e-01
1.082274590012619192e-01
9.422543768476462911e-02
9.871454612129412776e-02
9.590660855715543720e-02
1.008969921086190907e-01
1.035484178535082400e-01
8.794271239801329521e-02
9.325562703688264343e-02
9.321534441063300536e-02
1.217116619482628420e-01
1.120927690369134117e-01
1.021658625182004787e-01
9.667764187098923379e-02
8.607657080862843313e-02
9.916295687346879384e-02
1.089136781808536930e-01
1.143152695323424312e-01
9.773174062521047811e-02
1.020537444975747610e-01
1.003688615444939120e-01
9.330254511659051564e-02
9.304046007332902879e-02
1.050309639403459172e-01
1.457751130560011321e-01
1.079955323238286358e-01
9.636947952920135729e-02
1.003902353924395197e-01
1.120823132163365904e-01
1.009821864770200917e-01
1.113934599766935457e-01
1.269881657791616381e-01
1.129541945607450415e-01
1.433854199788106021e-01
1.328159058889958888e-01
1.196410015097702784e-01
1.309593445564228020e-01
1.362018241667302676e-01
1.330000098984200352e-01
1.214446431784596270e-01
1.210809818556175949e-01
1.377382367630425875e-01
1.186803322727001814e-01
1.220724377187599047e-01
1.256911257722965192e-01
1.150470717062679615e-01
1.196086515104946846e-01
1.296731989525218842e-01
1.254589455811248588e-01
1.223940410718295790e-01
1.341514014918000486e-01
1.267177455916900786e-01
1.355216399555946027e-01
1.336589602746507954e-01
1.322176105850391692e-01
1.327685774425160503e-01
1.444167442651769218e-01
1.285613400316778787e-01
1.267700111071825564e-01
1.241993861987196468e-01
1.251740421046194929e-01
1.242007394155861394e-01
9.411182920386264306e-02
1.002029327681506210e-01
9.998604380069325837e-02
9.819375986829789738e-02
1.008804051349418279e-01
1.300909717444415914e-01
1.118477739881968275e-01
1.554699481993688515e-01
1.238097312355536106e-01
1.128164292087314446e-01
1.043999034274450954e-01
1.147395817983999089e-01
1.647388798268218935e-01
9.766015953543068229e-02
1.047211150026461646e-01
1.090228608122686405e-01
1.035062337214510408e-01
1.063837512215868031e-01
1.088564126183082792e-01
1.032349814214887918e-01
1.085549426621596758e-01
9.577241414183024215e-02
1.127663781228317036e-01
9.541122967271244149e-02
1.006671761068604898e-01
1.092106552271386172e-01
1.100164329783504258e-01
1.128572292998512722e-01
1.111746637928572312e-01
1.058436600726199578e-01
1.075705611342318291e-01
1.124038349757430222e-01
1.194565056066716480e-01
1.329631417171772967e-01
1.260633821163366086e-01
1.165392410078855273e-01
1.187036793036626986e-01
1.179421965598625999e-01
1.147126304407190406e-01
1.214233731916065373e-01
1.221240112634194991e-01
1.199887230055928233e-01
1.235883368833081974e-01
1.080845903603841612e-01
1.097928520835161903e-01
1.114472397417201471e-01
1.163858526172108360e-01
1.153576434621659680e-01
1.157190587929384507e-01
1.181736711124122402e-01
1.280173708274160993e-01
1.298829938372608184e-01
1.176488956768978189e-01
1.219336701843436455e-01
1.347872323850673737e-01
1.348778217035605520e-01
1.189149938611390456e-01
1.243308824151233560e-01
1.221818298853576124e-01
1.247292113178803258e-01
1.277240510065260071e-01
1.200147295542288023e-01
1.224131869206155632e-01
1.222426348725672851e-01
1.000888639808554526e-01
1.052527574974892743e-01
1.029368378942834561e-01
1.089263304057858373e-01
1.055618806919391001e-01
1.080358961755519542e-01
1.051615104215675861e-01
1.122016056909381776e-01
1.010461075553165944e-01
9.984571331727988552e-02
1.247596645716761571e-01
1.173497671549352528e-01
1.083206366763127121e-01
1.118210454447599866e-01
1.090699820449273078e-01
1.083764138186355669e-01
1.116332797423159329e-01
9.890809074470495454e-02
9.507130009850048302e-02
9.886763340210712181e-02
1.046517097723292516e-01
1.016026857576425579e-01
9.851125738640507945e-02
9.577185920337402680e-02
1.112802878408843538e-01
1.004851227506879524e-01
1.353530420670212286e-01
9.772722296895328120e-02
9.020458620904817093e-02
1.039496298554427600e-01
1.033646925375496239e-01
1.006214252751954225e-01
1.188696091898168855e-01
1.204754769177406037e-01
1.174497829514965092e-01
1.134213256336239900e-01
1.161599890230201881e-01
1.146755230280883248e-01
1.267340195455284313e-01
1.688853954884976527e-01
1.245158245953917608e-01
1.235108408849764638e-01
1.209838600484200166e-01
1.126416745677655679e-01
1.054718935672707553e-01
1.383922148842429978e-01
1.252051989204269189e-01
1.197932092335337179e-01
1.253404502260086484e-01
1.531458407602884764e-01
1.776680594474863151e-01
1.114241352980558653e-01
1.236154461977187202e-01
1.297102029745559881e-01
1.156480096691191034e-01
1.147482159162478144e-01
1.368679695284904796e-01
1.389109721859231039e-01
1.223183509630467458e-01
1.347829836258909730e-01
1.344744997188348501e-01
1.357679188905647483e-01
1.281427079161484295e-01
1.193069355428195005e-01
9.302625892021562648e-02
9.989198100578819406e-02
1.008532622156007863e-01
9.434706731945742553e-02
9.683504107760215751e-02
9.098530852388435342e-02
1.004945132844013989e-01
1.140689862039115099e-01
1.023675829084695899e-01
1.018154698969906125e-01
9.519754917748360357e-02
9.588274200065613484e-02
1.387614687490330012e-01
1.380546387668739050e-01
1.051046968037147034e-01
1.587019128728565098e-01
1.095303965879167868e-01
1.079413654220588714e-01
1.075225128454073004e-01
1.015800047488541608e-01
9.964419149034972611e-02
9.360294603436898619e-02
1.010938216922244448e-01
1.029889246400332858e-01
9.858037997350496684e-02
1.021272822313327860e-01
1.103060677291592129e-01
1.037824406140311906e-01
1.131034921177926922e-01
1.094165044036597145e-01
1.132562458610053974e-01
1.030224948041368049e-01
1.305211568976524794e-01
1.292485542048473490e-01
1.318968571953699209e-01
1.304332618391373100e-01
1.333000084845637201e-01
1.316274374795889934e-01
1.307832673443404814e-01
1.172469904156750314e-01
1.187733959562859154e-01
1.207341746429991397e-01
1.236757984459092991e-01
1.215430867209239818e-01
1.289377044771712610e-01
1.227263130613523157e-01
1.185651394780035811e-01
1.152524180524910902e-01
1.203603678001379657e-01
1.267217844855283160e-01
1.291212836665857899e-01
1.285052805181192692e-01
1.277295514303200819e-01
1.185755590250647390e-01
1.112714084464570263e-01
1.160428281540909073e-01
1.124507619998796060e-01
1.187112166259563367e-01
1.135639875730495574e-01
1.144798647170646583e-01
1.197029835688918215e-01
1.223943236809604124e-01
1.115385773720550810e-01
1.167575888859315042e-01
1.126352498324992152e-01
1.015475897904724867e-01
1.058580990820009171e-01
1.037404840214681823e-01
1.058283523534008508e-01
9.946427773689482665e-02
1.003580383271257537e-01
1.046469656026162431e-01
9.820724733950188245e-02
9.706047544967716378e-02
9.932645526098879407e-02
1.029854735053422343e-01
9.107532651089447762e-02
9.400766789211775776e-02
9.685253562109244485e-02
1.110825908720735333e-01
1.031170470232422864e-01
1.018751461922785123e-01
1.093294056492355032e-01
9.955592416864308958e-02
9.771301495966944195e-02
1.084629831380657522e-01
1.030629123726830854e-01
9.463734025022017826e-02
1.075171670686217162e-01
1.046350903818189515e-01
1.028852278143812110e-01
9.556212078456974290e-02
8.425822819189869584e-02
1.004423760831293644e-01
9.790275115253012361e-02
1.004730121357060302e-01
1.203337558494778081e-01
1.117601906921508459e-01
1.072063791877477523e-01
1.081062963408504496e-01
1.099845436772011603e-01
1.212059606549740487e-01
1.222275665448644827e-01
1.141937474214191894e-01
1.149441346422261645e-01
1.186289908094183138e-01
1.188215820274415302e-01
1.246668155451841897e-01
1.266528964232532806e-01
1.180231946038850233e-01
1.163367719979670617e-01
1.195334841998614006e-01
1.229499800946310534e-01
1.190401703593611665e-01
1.304365876394923407e-01
1.145290240350899935e-01
1.325403019776148494e-01
1.725415143138595564e-01
1.198423864981559978e-01
1.208689019991039115e-01
1.205995400593151967e-01
1.174091684165353699e-01
1.188588870390877572e-01
1.347724663835488668e-01
1.208600125881515719e-01
1.205162406776491696e-01
1.199803010843992074e-01
1.164494703636099471e-01
9.605623188954022507e-02
9.387846732760420088e-02
1.008049411484822216e-01
1.032640991020998544e-01
1.001849421056636158e-01
9.532510188561207909e-02
9.519213863997059988e-02
1.023030102892126952e-01
9.310362864782384396e-02
9.974187800438046037e-02
9.441722413483812082e-02
1.101356826615647738e-01
9.589687571374962138e-02
1.003309251819280296e-01
9.045882684598068046e-02
1.135594155157145096e-01
1.045844428026335982e-01
9.424954009465467963e-02
1.060871513358545570e-01
1.020246247279951862e-01
1.047287086906684150e-01
1.242032380642507927e-01
1.943160551484703902e-01
1.185912135621245145e-01
1.278885707208195499e-01
1.342884947992730171e-01
1.906429188232358352e-01
9.979484149914839841e-02
1.051262044655686123e-01
1.031472004778277440e-01
9.903032819063620207e-02
1.068226493477983652e-01
1.120869120621584142e-01
1.045258511481925029e-01
1.099173915427508474e-01
1.073274979578203309e-01
1.069463651051213160e-01
1.108013147391256892e-01
1.142511838602943142e-01
1.166851388047626809e-01
1.101832446303676882e-01
1.220173110030349645e-01
1.181793724078953611e-01
1.231234475134314055e-01
1.205148290240827952e-01
1.199108040001021641e-01
1.439586444005420407e-01
1.353908715567507248e-01
1.207779918768777383e-01
1.207086727870686493e-01
1.141953092306978446e-01
1.189122935814688614e-01
1.265282849597271775e-01
1.173613665531728634e-01
1.261052788213228304e-01
1.160572145379643594e-01
1.292468918322172422e-01
1.306055748282255180e-01
1.235110350163367149e-01
1.256262830478698245e-01
1.237571654082985778e-01
1.284553496947784257e-01
1.269141355968425589e-01
1.291375191685803225e-01
1.009951256550723764e-01
1.010200164931858158e-01
1.055460336112237496e-01
9.728929439415336111e-02
9.790288184396152282e-02
1.006889526246363964e-01
1.170048775531485896e-01
1.068209004851275179e-01
1.068516317118353431e-01
1.130690472369653976e-01
8.781430329855680061e-02
1.024345338017826901e-01
1.245457682052673321e-01
8.466469589840726340e-02
1.826602117181611029e-01
1.014382796089088046e-01
1.038493391785458853e-01
1.025878464579085547e-01
1.064951943794106570e-01
1.020619684345948075e-01
1.080622348090672508e-01
9.759004306323469657e-02
9.837570016943328333e-02
1.041110485401743613e-01
9.427525583915176421e-02
1.133291916743210948e-01
1.018589338890728280e-01
8.902399180008704893e-02
8.910002056488228184e-02
1.025642462127789589e-01
9.274004046854188166e-02
8.717832533894862013e-02
1.295280483905648927e-01
1.177092931759211175e-01
1.279911668123315804e-01
1.235150557806482113e-01
1.300008128346463454e-01
1.295183947736245900e-01
1.240772825520842365e-01
1.239195196499416757e-01
1.214184068305395880e-01
1.311303061474514420e-01
1.281216366468660162e-01
1.227740204168529664e-01
1.208621631922727480e-01
1.203500641818488343e-01
1.144230022501204341e-01
1.212368361548921136e-01
1.285214006243429186e-01
1.196888389028328559e-01
1.231510761942781473e-01
1.360762124182933464e-01
1.392509833396124441e-01
1.376268699318393685e-01
1.345207253302598549e-01
1.317867549620663215e-01
1.274711571160337398e-01
1.334825679522129716e-01
1.291447468948541677e-01
1.189688078861648179e-01
1.179386164283045407e-01
1.204611467978321526e-01
1.253295483079534534e-01
1.106206283363686260e-01
9.086202589747019442e-02
9.650738058956932763e-02
9.470574272892631762e-02
9.818867115350751740e-02
9.339773852195884518e-02
9.813534917622315779e-02
9.450266213599621545e-02
9.628250077423747277e-02
9.533750165594249981e-02
1.027111832629233196e-01
1.042988256582256523e-01
8.716427505349161331e-02
1.102522247325661980e-01
9.501052639570187197e-02
1.035444164176112097e-01
1.038764553727465068e-01
1.048251626704590489e-01
1.090320851282131354e-01
9.902863600249436904e-02
1.000500431501065435e-01
9.484749780636891892e-02
1.026804487042576319e-01
9.839180582273872322e-02
1.010991442932872575e-01
9.698278972167399814e-02
9.331508713059059879e-02
1.084023213920411177e-01
9.487764437223153435e-02
1.052487544277370402e-01
1.021263219487496821e-01
1.010466468493426972e-01
1.021002580953942751e-01
1.077287869524593128e-01
1.045501775737566474e-01
1.140301474272939625e-01
1.232265076757474986e-01
1.418059472336160032e-01
1.155817052579386911e-01
1.161267432431542374e-01
1.182224084435048866e-01
1.088231277378293449e-01
1.158447512011293173e-01
1.142567257604127917e-01
1.175667243498089015e-01
1.103127243195423518e-01
1.071103836364395434e-01
1.123284785037056421e-01
1.037999404157833594e-01
1.107996468482821129e-01
1.080935335004272330e-01
9.967101251582784205e-02
1.083120559020069179e-01
1.045835747418865924e-01
1.063699860912886430e-01
1.171513007801110867e-01
1.221839634843317340e-01
1.080577251235709663e-01
1.471024731736533808e-01
1.097370626486908057e-01
9.629184154828948627e-02
1.086068361147282807e-01
1.152764610802448353e-01
1.172904445092146919e-01
1.159346351809404096e-01
1.012178985748315718e-01
1.024091043397546141e-01
9.885059390974440530e-02
9.825554571573316687e-02
1.079877788803341454e-01
1.036240791640344466e-01
1.190422186138329480e-01
1.066772746051591614e-01
9.417760868267349705e-02
1.022770886726614148e-01
1.005209662914405416e-01
9.464626864061212452e-02
9.753198062988746586e-02
1.051549761640298286e-01
1.012361999754136238e-01
9.548493153076195727e-02
9.840548734590306990e-02
9.769810275809412414e-02
9.339555040942740249e-02
9.414910403007512030e-02
1.015940412123952641e-01
1.005029682345843500e-01
2.404854876029549615e-01
9.310410418198108995e-02
9.391671094957379506e-02
9.106253711805968598e-02
9.529123744582670974e-02
1.003923608455498800e-01
9.281923504870463748e-02
8.676435060621449924e-02
9.394494114098152215e-02
1.007906231539591885e-01
1.224284783517578107e-01
1.354864054724064792e-01
1.359875147258404748e-01
1.271388820237822626e-01
1.249251728526561411e-01
1.163213461838328300e-01
1.213522780719008265e-01
1.218775190197413927e-01
1.114969153753631731e-01
1.183177059125974095e-01
1.347405611737809705e-01
1.375034196862901237e-01
1.300471796482504105e-01
1.247832884860097663e-01
1.213922373822513140e-01
1.116076534453083191e-01
1.252223651478233113e-01
1.265162789759850248e-01
1.198618982410341038e-01
1.230065938673966103e-01
1.279140868883283932e-01
1.221184649563432228e-01
1.259539567629006096e-01
1.219206078324563541e-01
1.179780667634134639e-01
1.116731593513902998e-01
1.238263555855757120e-01
1.184068138757876226e-01
1.271314523749533520e-01
1.268377665180040192e-01
1.199102212396035150e-01
1.444803808699122727e-01
1.180055482964778718e-01
1.117900251603774764e-01
1.472110308931655065e-01
1.113914003317293122e-01
1.121835930256304542e-01
1.157831978333717232e-01
1.152860611623724163e-01
1.231622298558928963e-01
1.190651290111967020e-01
1.807514845496551170e-01
1.209670307017855218e-01
1.077958848126457925e-01
1.143683096261367133e-01
1.020946636956480830e-01
1.140485663194610311e-01
1.148357979676695589e-01
1.069633764203860443e-01
9.608618295264104159e-02
1.092623277504604917e-01
9.813754215702795436e-02
1.037168189190340178e-01
1.196287238443652506e-01
1.036623172196824150e-01
1.301459535423435121e-01
2.034187376848931861e-01
1.392138946996364368e-01
1.341158285463251998e-01
1.135817538583792363e-01
1.054253195544781613e-01
1.159336927498151038e-01
1.137494835007523547e-01
1.317714848894949442e-01
1.123773095463203725e-01
1.088957801058581670e-01
1.136397843724658019e-01
1.089311651116281893e-01
1.221793729273545626e-01
1.146603913434288274e-01
1.106682785106794659e-01
1.077844832605854564e-01
1.167110220428394241e-01
1.149239403946464427e-01
1.073195113044302512e-01
1.145211650233980832e-01
1.233844387934140696e-01
1.177593419051367329e-01
1.125199920005901244e-01
1.126711582443608028e-01
1.203127687488533548e-01
1.201542262528650651e-01
1.551866174849557689e-01
1.175280542656958332e-01
1.144149287155872552e-01
9.698766984075492259e-02
1.065576125236934041e-01
1.035535308274983385e-01
1.099095793760392903e-01
1.119789234659360061e-01
1.327556493934304027e-01
1.409729859368314131e-01
1.275096893425914923e-01
1.292257646665530280e-01
1.303023178966274398e-01
1.284331188347607178e-01
8.003269642873347967e-02
8.359325907419749846e-02
8.278462696819423317e-02
7.668658217169375957e-02
8.168411321742509446e-02
7.218346639342410054e-02
7.779663389736485302e-02
6.636735487048769921e-02
7.898000559631609963e-02
8.406584163665950515e-02
8.531128981315215520e-02
8.115741790690828017e-02
7.212854761726238129e-02
7.241963632025646969e-02
7.163887007948314956e-02
8.193879231218895165e-02
7.837555986402133801e-02
9.359896762684459526e-02
8.882937881125636814e-02
8.637264399656073566e-02
8.214915493641612720e-02
7.730473277340367544e-02
8.587969072959145134e-02
8.075183420111889387e-02
9.676922432664307461e-02
8.819050865133840067e-02
8.447107689087243743e-02
8.826324471059934784e-02
8.423448363355454105e-02
9.447289832946234589e-02
8.248678783132758208e-02
8.041850607606854107e-02
1.103610618706599711e-01
1.186984804582764952e-01
1.587602828199539406e-01
1.256945803243843529e-01
1.171882325728219321e-01
1.225650325937817364e-01
1.069015257927645041e-01
1.163015388277245099e-01
1.128606551683831449e-01
1.110499369134436420e-01
1.148913596440224449e-01
1.248942582544352309e-01
1.216009644458406758e-01
1.032241103550805700e-01
1.146642246023169137e-01
1.093824933917760395e-01
1.091269962338460714e-01
1.243763004105553210e-01
1.052407446146084863e-01
1.024659325972550050e-01
1.044272648104874052e-01
9.687387931824835430e-02
1.016000415223718284e-01
1.080395292300358329e-01
1.069233660425643329e-01
1.089446672160244989e-01
1.033523227717061815e-01
1.000251008150745413e-01
9.901716312286748534e-02
1.032313010456149815e-01
9.478443172680015016e-02
1.098950255064660569e-01
1.008807495880336552e-01
9.987044830177196908e-02
1.003524505976157305e-01
9.501675437532451640e-02
1.011202486225338537e-01
9.712427412596755238e-02
8.910993623069879410e-02
8.539271054182692722e-02
8.664792882572318333e-02
8.581356158165205639e-02
9.122661806025481046e-02
8.797971527857285923e-02
9.741905183566255955e-02
8.923386002946133433e-02
8.274405551005056814e-02
8.334926706351900028e-02
8.041700577185345589e-02
8.904311802361415673e-02
7.867103194965127666e-02
8.346119233133106330e-02
8.028986919764657948e-02
8.359351612396595521e-02
8.123284117819934425e-02
9.140959289114007624e-02
8.364227571014225260e-02
8.561524281461445340e-02
8.780359737586035385e-02
8.284654043576726579e-02
8.736776806745082113e-02
8.468752915277663607e-02
8.708379909416955056e-02
8.489004725682811059e-02
1.095273428480873223e-01
1.161607370801490402e-01
1.090813296229300178e-01
1.155297803298529075e-01
1.165805688329313305e-01
1.140311793510022931e-01
1.162303773369908200e-01
1.140411891580239701e-01
1.072930777207022901e-01
9.842033941139446962e-02
1.168225683279660865e-01
1.188447181899419947e-01
1.187520630965534230e-01
1.644783942068123173e-01
1.158702162215764775e-01
1.080796317296390530e-01
1.234328405611050672e-01
1.227348942348527594e-01
1.211547924533472181e-01
1.155866090895596443e-01
1.078116264449592993e-01
1.146612196050571519e-01
1.151971397368398431e-01
1.163826131375957917e-01
1.223840586440173989e-01
1.302771016038695995e-01
1.274821196834229897e-01
1.208399744924310293e-01
1.164886390404643174e-01
1.189469565383710348e-01
1.159555931740162971e-01
1.144100347976941545e-01
6.989045148068213920e-02
6.906164314621580924e-02
6.658737141675186155e-02
7.708145267965597902e-02
7.214565264388658750e-02
7.433682287086665341e-02
9.214428007388959785e-02
8.473979571037756897e-02
8.688241065201492142e-02
9.018900896298027992e-02
9.134328228621375889e-02
8.443516533401689006e-02
8.021982734000457360e-02
7.778796547147889817e-02
6.925493988503436671e-02
8.127064572189142411e-02
8.749184549025480762e-02
8.004476367951082749e-02
8.025299259411963759e-02
8.590103071364814380e-02
8.614725016222521403e-02
8.760401943993526008e-02
8.630163686849644245e-02
9.000564795159002318e-02
8.885681571029564740e-02
8.185797932693024415e-02
8.352863502301664800e-02
8.635137562176099790e-02
8.407911985084977335e-02
9.400525912644396020e-02
9.269339928513700699e-02
8.876615388462653911e-02
9.899662690245654428e-02
9.629325350856235421e-02
1.013219927798750808e-01
9.183652520018531495e-02
1.017659698521932166e-01
9.869147272593017939e-02
1.043564639864657667e-01
9.717110153800852246e-02
8.599698414756487552e-02
9.209153383900280099e-02
9.651492174892919995e-02
9.681755659829469063e-02
9.318668905517676904e-02
1.034372342865906430e-01
9.896390715028860474e-02
8.667009257379562626e-02
8.766749953918737126e-02
8.546370419380691641e-02
9.674693126805133936e-02
9.572678502763563857e-02
9.021161813362248150e-02
8.472665762527824274e-02
9.566154581515037836e-02
1.008936723132470015e-01
1.020881070348277075e-01
1.749640004832462015e-01
9.618984322743193149e-02
9.704576622769474359e-02
9.138979327617804960e-02
8.920585563039931665e-02
9.757915769100138081e-02
9.259118785338119051e-02
7.756901796386123094e-02
8.625637528549798261e-02
8.905250144620731334e-02
8.949416625394046587e-02
9.358194815194728622e-02
8.874899610720257681e-02
7.591078941711790207e-02
7.576618688060771101e-02
7.352580546745972334e-02
7.173444014392946211e-02
7.296948665809420420e-02
8.598190802837468727e-02
8.221101240618575168e-02
8.452686268601991570e-02
8.239893317329952116e-02
8.819245927383147221e-02
7.500588869845054019e-02
6.932855995680821393e-02
7.279168012091126461e-02
1.099177840472811418e-01
1.270267392199095069e-01
7.910906286421270917e-02
8.455288413592872143e-02
1.116109721856624465e-01
8.391275991223406949e-02
7.579172483216213563e-02
7.499459535293358237e-02
8.346088068175118446e-02
7.098140723243542838e-02
8.427750710794131017e-02
8.056497296689357768e-02
