-1.144985922095307140e+00
1.597388197740801985e+00
1.624448908832107907e+00
1.765078134377044083e+00
1.448331734881618260e+00
1.537036536470462789e+00
1.574331397824411116e+00
1.553374808044484023e+00
1.679208808640999528e+00
1.453022972839719484e+00
1.413723273502048627e+00
1.537450388914453292e+00
1.586140048303132488e+00
1.501990860003733497e+00
1.518776055809059500e+00
1.542968320394516812e+00
1.516183207532536770e+00
1.550524970744422415e+00
1.498931264646722106e+00
1.556794147570014886e+00
1.659753293644937955e+00
1.406700929718797566e+00
1.580266519264680314e+00
1.635769978020652271e+00
1.497682627722436433e+00
1.605036983864216893e+00
1.594210980100582820e+00
1.518151838482810767e+00
1.535834725959791092e+00
1.590533943592017607e+00
1.534773091272962908e+00
1.622449633376033873e+00
1.679333105966033468e+00
1.575906100310727975e+00
1.556125126569637196e+00
1.582766220402919144e+00
1.740457554761333903e+00
1.653110921427242808e+00
1.623524820414577130e+00
1.528842015309415103e+00
1.639241200808124299e+00
1.723120960238839539e+00
1.702518450965752717e+00
1.712932018198719542e+00
1.712352907955140502e+00
1.640770189393220058e+00
1.667090274511945136e+00
1.649342558242423262e+00
1.702553343214473491e+00
1.604566899263630386e+00
1.717119492952228654e+00
1.630062819283701003e+00
1.738725179747375504e+00
1.759635549935967491e+00
1.704118943377606499e+00
1.704740733418458332e+00
1.694039734937646369e+00
1.664918054853251839e+00
1.665099696836173093e+00
1.769414988420695556e+00
1.682743242035589892e+00
1.721822766203819022e+00
1.637677016562820498e+00
1.835274872023616055e+00
1.600907561730886330e+00
1.770174223592154705e+00
1.649931681043810716e+00
1.831831866444280310e+00
1.737523166961730370e+00
1.704325970738989948e+00
1.652073964160236663e+00
1.705819763659836674e+00
1.639076549836561147e+00
1.699136936658084629e+00
1.758064589512319476e+00
1.739996977034965919e+00
1.848979638255332292e+00
1.808152568527230830e+00
1.755517556278117119e+00
1.721944029421099476e+00
1.803137894567624855e+00
1.794911009577437877e+00
1.830026167136486359e+00
1.703397634570308350e+00
1.730086970733247131e+00
1.768089386266484375e+00
1.858239232761452087e+00
1.814982650942890352e+00
1.642772498954252702e+00
1.729217799688052892e+00
1.819955555340235565e+00
1.682484331409469291e+00
1.726106927893942267e+00
1.850751456683137119e+00
1.805294336857347526e+00
1.736010360295165089e+00
1.676742078149755510e+00
1.820138714376102307e+00
1.764762485920363222e+00
1.723609047217265156e+00
1.825079153806628884e+00
1.682484027996271170e+00
1.693036860832432655e+00
1.673504886288252003e+00
1.635676426330869404e+00
1.669452429381972802e+00
1.657601200238147499e+00
1.711551397535113095e+00
1.560069265793505133e+00
1.579325439842469869e+00
1.704614413354714753e+00
1.633518365847260290e+00
1.658259096174689695e+00
1.686919389442526285e+00
1.561447459167523144e+00
1.554416923294005048e+00
1.592669956217262373e+00
1.469830216499760756e+00
1.557902709803325125e+00
1.461109176318512670e+00
1.584806254055393104e+00
1.582340433795589529e+00
1.461088240965785490e+00
1.470534938848598205e+00
1.395485953205114038e+00
1.525323966102969830e+00
1.537308493761136763e+00
1.454239751622262267e+00
1.460252343975580791e+00
1.413505525622894332e+00
1.323534287003327536e+00
1.313920308585553975e+00
1.354747479451103631e+00
1.336492055640821519e+00
1.379130589485859204e+00
1.393786043155335497e+00
1.281728616034684798e+00
1.302408697365411649e+00
1.253953574588619890e+00
1.227517687650967915e+00
1.345923684115169161e+00
1.251086746281161233e+00
1.236949214987710821e+00
1.220430211663996012e+00
1.228143624300941594e+00
1.250276942631709964e+00
1.239338171157212898e+00
1.153381665359315411e+00
1.200567923809272353e+00
1.100115659604448348e+00
1.186582199099281532e+00
1.101419719582720669e+00
1.132756905947068349e+00
1.204218968119268762e+00
1.066633762833931076e+00
1.107462248482188771e+00
1.191929006838288618e+00
1.049706975281966326e+00
9.869033495188329619e-01
9.771843909361072056e-01
1.039760964222472106e+00
9.962642832599475362e-01
9.700060939619054023e-01
9.162405727562360491e-01
9.876050377559555393e-01
1.004828965701697108e+00
8.709892666461815924e-01
9.180313037937104514e-01
9.112928514650976419e-01
8.355285240909011701e-01
1.008414270984837158e+00
7.880429002334081723e-01
8.801801891564597913e-01
8.161323764907378875e-01
7.921610961646782245e-01
6.765177569384520639e-01
8.934449084711865163e-01
6.465923414209687747e-01
6.738220523672355800e-01
7.478947629241806672e-01
7.327318039850371223e-01
6.276958104059484622e-01
8.391038168178627243e-01
7.403696673110509163e-01
6.534536751576436320e-01
5.544700207693995520e-01
6.242417808993727668e-01
6.780433068652236273e-01
5.265518705221193807e-01
4.392978786411687042e-01
5.246179295448951674e-01
5.875078251402267027e-01
4.595034253486767195e-01
5.164612336031089157e-01
5.062626835516327306e-01
4.830384008223569392e-01
4.086190938997479316e-01
4.147108764999350994e-01
3.765584748519448799e-01
5.073994629962638170e-01
2.518918981976294158e-01
4.273169919202546296e-01
4.760350707915799728e-01
3.745242060087696778e-01
3.352570727718723331e-01
3.827051748190328784e-01
3.085734002805514131e-01
3.864558390305160018e-01
2.541769867033922270e-01
3.394980489776384114e-01
2.310884297800652742e-01
3.207184322942513433e-01
2.586153822586431117e-01
2.700652999391313647e-01
5.466774381120947934e-02
1.651864732007562453e-01
1.893521387688560098e-01
2.281739659627453898e-01
2.548621896204336656e-01
1.692151629252541256e-01
1.420363238669162809e-01
2.656466260885519959e-01
2.258637954872166898e-01
1.237974865160271221e-01
1.240163468969370242e-01
1.112736965798578059e-01
9.703846698315618524e-02
2.058783228131758070e-01
7.634048441351286296e-02
1.408027563493871037e-01
9.859233525636751372e-02
2.301185263206803333e-01
1.946780111550602821e-01
2.627677826855312482e-02
2.043986890684998670e-01
1.476010817553929100e-01
1.709909256919444065e-01
3.185603718083888647e-01
1.250938600888638064e-01
1.961921326059642701e-01
1.897925902340842907e-01
9.476349217218506260e-02
1.466375499255695991e-01
2.677579612951404009e-01
1.612723716590102052e-01
1.608565976071580361e-01
1.630345820709570015e-01
9.686289321752787618e-02
1.088707835133522206e-01
1.707020785320179090e-01
1.764362408335543031e-01
2.103139876663387975e-01
7.495480690561516501e-02
1.564214384403796454e-01
2.028940744931334028e-01
1.144620392862420039e-01
1.084038341628589253e-01
7.285490017606022217e-02
6.015412055690416704e-02
6.222095550201640207e-02
1.599690196366619910e-01
1.972524525097729686e-01
1.607044876207510131e-01
2.006233474359540025e-01
2.784724109939458181e-01
1.170046225010742402e-01
1.577277234312486343e-01
1.306201859326943104e-01
7.832752229615379258e-02
1.418334431197789680e-01
1.070448568124068855e-01
1.888380595925587269e-01
1.403586639478350273e-01
1.352359757176960775e-01
1.229195165521497213e-01
1.194108730845725996e-01
8.495826376269598190e-02
2.417138789463728898e-01
2.538301880700521429e-01
6.301002607969341529e-02
2.486113185813764725e-01
8.279676462262808290e-02
2.773367440510720594e-01
1.014206303847604018e-01
5.673690490613270132e-02
1.140960246250659615e-01
2.851013319928717427e-01
1.431629896134174462e-01
2.181225701881190915e-01
2.121148324035739274e-01
5.935463288001208149e-02
4.087063953069992178e-02
8.493247383723716293e-02
2.956012701960274436e-01
6.709798205441153129e-02
2.042381847091631897e-01
1.560767636747363851e-01
1.893833900886300881e-01
-2.491268339325180756e-02
9.286585936702168587e-02
1.393657012655450389e-01
1.333723249293470303e-01
1.084386252776260440e-01
1.266569318261235311e-01
9.278141000298567587e-02
1.272327045465783124e-01
8.780061692554136377e-02
-3.898457679240252549e-02
1.476877561347428869e-01
1.695245408835348022e-01
9.287000598212179214e-02
2.233261679893188134e-01
6.488662239344022975e-02
1.499140840657999241e-01
2.582516937458804729e-01
2.213056537715907268e-01
1.318755990329930072e-01
4.974743063926068132e-02
1.149356636807345455e-01
2.389200715259156005e-01
1.659473265638510830e-01
1.811582244251975227e-01
5.726059209036999526e-02
7.583105754079644267e-02
2.466475624369390829e-02
1.787445908403782480e-01
6.596777651268376230e-02
9.043027906004247329e-02
1.065219787192126372e-01
1.756121768719605680e-01
8.174109701851982324e-02
8.821790802994861069e-02
6.223845219898311437e-02
9.803820584704908692e-02
1.473480370806755646e-01
1.757411264984794497e-01
1.325841645869939023e-01
1.130420763489539543e-01
1.592663200288641501e-01
1.618789911515428059e-01
1.645690320537038787e-01
1.273501245614114263e-01
1.743086225754155172e-01
2.648633405161620810e-02
1.152869123463317602e-01
1.148131868180399806e-01
1.733331565846559230e-01
9.538012422726188655e-02
2.231782046156043919e-01
2.621012699106120003e-01
2.369786464145798299e-01
1.850551326854265877e-01
1.206473735764445609e-01
8.602546098113084128e-02
1.803410377763655092e-01
9.594507529412893421e-02
9.062324838433460927e-02
1.692017117081907052e-01
1.450164255705376770e-01
4.144550202367236480e-02
1.317976224357321202e-01
1.773710497692428667e-01
2.127569509741726872e-01
1.912186213902972720e-01
2.403159638691571287e-01
1.186896654109182853e-01
2.131995263142398289e-01
1.976566969448920741e-01
1.599985516261103191e-01
2.567825782434580151e-01
1.844789554199160742e-01
1.332018080094844459e-01
1.786336435948823187e-01
1.801610139866323124e-01
2.419863419231219892e-01
1.121648143495402455e-01
1.666155384663521311e-01
3.138995962734653089e-02
2.654251361450984947e-01
2.282055206960272864e-01
2.005833983365755968e-01
1.005446831621556042e-01
2.065128561095764814e-01
1.594425006160734015e-01
2.275353871914099213e-01
2.180179945697751087e-01
2.139619978662515298e-01
6.169757172794909650e-02
1.621989884948031313e-01
1.951951244397330809e-01
1.649634662017167019e-01
1.420114441738298261e-01
1.768072112070067092e-01
1.487943967643836074e-01
3.020894085423070363e-01
2.162621557796243210e-01
1.416638364371797243e-01
1.710504953604092271e-01
1.214823603293848642e-01
2.323945124986777633e-01
2.474174978904253308e-01
2.599121603786315182e-01
3.393594913397637303e-01
1.680138580953005611e-01
2.272596878312342916e-01
1.803519605688763960e-01
1.738236708463047897e-01
2.058831773901003970e-01
8.409546434341336196e-02
1.459118922282747477e-01
1.301959163775316397e-01
2.398849181348774451e-01
1.500496075924283579e-01
3.312559934385883031e-01
2.537635388053114949e-01
5.883155251681237291e-02
2.395220387203790269e-01
1.668630206103937919e-01
2.227104461725918361e-01
1.698305813341391968e-01
3.106389204424134798e-01
1.882244616479532007e-01
1.328002942749008652e-01
2.187285828586046921e-01
1.007482718667691568e-01
1.766762388426301178e-01
8.986502458254053138e-02
1.766286033346344264e-01
1.128107761189375835e-01
6.867187544898750717e-02
8.735409724224295347e-02
1.609735119370826473e-01
2.358988070747847221e-01
1.760776091662477894e-01
6.370149948240461102e-02
2.406455692237750021e-01
2.196597508641803254e-01
9.159679277212408322e-02
2.298946090856974489e-01
2.546725578160074499e-01
1.762591500159124136e-01
1.661990564593530117e-01
1.961869746205767984e-01
9.428096773118845031e-02
2.143222477218560129e-01
1.457549276652533310e-01
2.782438414596518639e-01
5.967351771825608192e-02
2.139708979209076767e-01
1.768747706953471277e-01
5.954418376487580211e-03
1.347313022769283664e-01
2.259844518832242466e-01
1.268530363923567883e-01
6.699714850789856291e-02
2.196726963971090130e-01
1.917870111132342070e-01
1.911273958498604930e-01
2.019264971839491996e-01
1.413709437974269290e-01
1.067908007645295143e-01
1.438712517570926441e-01
1.737894865501701247e-01
2.765222881011443201e-01
2.953317401884197335e-01
2.521560679413069606e-01
2.285345192308481654e-01
1.673639519815837695e-01
1.574092431441930229e-01
3.545704903404990338e-01
1.572785741870382226e-01
2.231416941691141687e-01
2.532812166384346142e-01
1.723158198856507006e-01
2.103681970791022038e-01
2.701643130213643995e-01
1.778580242371411990e-01
8.970623955283235640e-02
1.718698058871070689e-01
1.357244672402475039e-01
1.753226217483453975e-01
1.726614048810281021e-01
1.459103751719910136e-01
2.572262660891624919e-01
2.144581758005272842e-01
1.206791305853979202e-01
1.922101681638435922e-01
2.556485294971884148e-01
2.242561223539047965e-01
1.782564027269109008e-01
2.293704162169382110e-01
1.324294250383538096e-01
2.235933718407495940e-01
2.489535660558802044e-01
3.735435820287416053e-01
3.384295369786695096e-01
3.633374467041546318e-01
3.630290801116575206e-01
3.501795280213774175e-01
2.151581447108183998e-01
1.911759415893750091e-01
3.093938233068311838e-01
1.150284062734182045e-01
3.625606339157815688e-02
1.520637501787322488e-01
1.919536848252935135e-01
1.741808865919812765e-01
1.229567349559620437e-01
2.106834409885532111e-01
1.976030943504499260e-01
1.976126012304131874e-01
2.594383337114151145e-01
2.293543354370231879e-01
2.940981726742289415e-01
2.493970516373256729e-01
2.687184590194618972e-01
2.850464146208465666e-01
2.583842843026686875e-01
1.931915000993303932e-01
2.077384338057552682e-01
2.267358995083070539e-01
1.608948273830425602e-01
1.089269145261353988e-01
1.431758340136340402e-01
1.535821193841255261e-01
1.884749779020006288e-01
1.263814347420862405e-01
1.491317896727534231e-01
2.368832742567922867e-01
1.687250532096705169e-01
1.533330190486030253e-01
1.055948561959457188e-01
1.422027953043903947e-01
1.456621850704734045e-01
1.363685074117199081e-01
1.401321171531038079e-01
8.929289279134498825e-02
2.349406355060972007e-01
2.248805419503915881e-01
1.208800897259169616e-01
1.901485923384598486e-01
1.613373015848845182e-01
1.683220224152306432e-01
1.492510301450363230e-01
2.442988385456686395e-01
3.003408516192132005e-01
1.960889729031176087e-01
2.992458417335042142e-01
2.331182485936226512e-01
1.039808114266320554e-01
1.177485859880855190e-01
2.875531953482181047e-01
2.047197989186408662e-01
1.441259146280259307e-01
1.720854298902587121e-01
1.868274568008599923e-01
2.288987134281330049e-01
2.269290711019824047e-01
1.896808338914116043e-01
2.750649044905040808e-01
3.311022652576729453e-01
2.574125603765204939e-01
3.260791969329026596e-01
2.413488756539306501e-01
2.354675590719748079e-01
1.078886424787493942e-01
2.664051533044755060e-01
2.329262906452840010e-01
1.198621462082795630e-01
2.907768348572287165e-01
1.830149979009404737e-01
1.707852131110167981e-01
2.887755366662496104e-01
1.284800266911850231e-01
2.164070850472162300e-01
8.570971138614758011e-02
2.125305053130083222e-01
2.289846798470542288e-01
2.827287600150866220e-01
2.374195024289021683e-01
1.716818934106758010e-01
2.866700674013604178e-01
1.129228358731786813e-01
2.323916806641104782e-01
2.087661876118188931e-01
2.087771104019230384e-01
2.171178756105512919e-01
2.142318312805367997e-01
2.490482302513007951e-01
3.063571860449831874e-01
2.970850505546397402e-01
1.572528854007343990e-01
2.448032085734727081e-01
3.048061495990397329e-01
2.134844291359788704e-01
2.940393109605239363e-01
1.368617523719631301e-01
2.052605782537026691e-01
1.831830875312147333e-01
3.689022045959712837e-01
2.168315568730811993e-01
1.693749593209024074e-01
2.549244899882684989e-01
2.468157329696173685e-01
2.947637550144988072e-01
1.617218243137010236e-01
1.739918616106891913e-01
2.278832983382285682e-01
2.596023778673758886e-01
2.251600845130140027e-01
2.737120964909888210e-01
1.828500435167219329e-01
2.956680205875795164e-01
2.426413048857868904e-01
2.397920744063751219e-01
2.234207310481448050e-01
2.376164160947178416e-01
2.302335190426652023e-01
1.798323188572463205e-01
4.425044260068087265e-01
3.181700842750894154e-01
2.186891394481740303e-01
2.953112093875812638e-01
1.926858152902156673e-01
1.574300773560561306e-01
2.366865628676567135e-01
3.084241221247496223e-01
3.029880104485850323e-01
1.649138079540794499e-01
2.443496093002645864e-01
2.828109843670698620e-01
2.178062137703898893e-01
2.081428805177099328e-01
1.599254296056961677e-01
2.246389257493682512e-01
2.508217680121488935e-01
1.950134824558022451e-01
2.568166613977984070e-01
2.388596927595755259e-01
2.563310017133083041e-01
2.258418487658337692e-01
2.421079085508044682e-01
2.382668278917922100e-01
2.012443283796297722e-01
2.808861457127204142e-01
2.895575276519986030e-01
3.008726297568922181e-01
1.523365165657291631e-01
2.596411133219597711e-01
3.547801472596124883e-01
1.834747665264828687e-01
2.734325539287550955e-01
2.541715253108630113e-01
1.954695090159582760e-01
3.087625263936246700e-01
3.140633168194530978e-01
2.269196653654452778e-01
3.165647372861553066e-01
3.192924011371847115e-01
3.129733637826924153e-01
2.395700787769240725e-01
1.524655673262819700e-01
1.639197327614139721e-01
2.402205917131536306e-01
2.360498045587371974e-01
2.268874026743755157e-01
2.092006719951047256e-01
1.777722600949777909e-01
1.870583524819378063e-01
3.058264192716128593e-01
3.329133248274568913e-01
3.340595100130502315e-01
3.231417750248458676e-01
2.091588012936883290e-01
3.683308819009416535e-01
3.012610968303384706e-01
2.624724425561643093e-01
3.455325880539713013e-01
2.271652259090006509e-01
2.837279931925167920e-01
2.979640318874056670e-01
1.381550918352587587e-01
3.644022166347878344e-01
2.958573489790428668e-01
3.297447038247351969e-01
3.973689217210394364e-01
3.735461104529061438e-01
3.227749512685897382e-01
2.818715231309821823e-01
2.823225939780857341e-01
3.482985828130525374e-01
4.119279918669431217e-01
3.757017436510416974e-01
4.446639024057597034e-01
3.138535587594770138e-01
3.404053486599500911e-01
3.127213304769426161e-01
3.836230938818215308e-01
3.458962765666545036e-01
4.426025288603953056e-01
2.837522660648759132e-01
5.665270636247689007e-01
4.082411450760080052e-01
2.334938712679391903e-01
3.806387444247201768e-01
2.971680839999951140e-01
3.247759460472255943e-01
3.535642787071135995e-01
2.461848406030953673e-01
4.382124767738791449e-01
3.441670367981304324e-01
4.027008623256235764e-01
3.802974071787088572e-01
4.448773013953836175e-01
3.683523229367152707e-01
3.637541309836436754e-01
4.143880473151969057e-01
4.059944886126409802e-01
3.987760402635455725e-01
3.304722831265523020e-01
3.790215644109023452e-01
3.945384015820695978e-01
2.543770356144882117e-01
3.557558155261991151e-01
3.568125956384295971e-01
4.370515255940264909e-01
2.499891074039743977e-01
3.393413878219916913e-01
3.325343646356043736e-01
3.025522112776222183e-01
3.319365440553874169e-01
2.923350520233103933e-01
3.886687157509545743e-01
3.482526666304129326e-01
3.587434013687447742e-01
3.704126851169947110e-01
4.486059177539368226e-01
4.350559922117239187e-01
4.164183718180123894e-01
4.330432655385882401e-01
4.775571820602643736e-01
3.822953678519975251e-01
4.798830287619584856e-01
3.976372380777972171e-01
4.255880555650065067e-01
5.620145346806801889e-01
4.965250146293213040e-01
4.818972724874977520e-01
5.639455426874432353e-01
5.547780839527355345e-01
4.499047186144196075e-01
4.937605369286954260e-01
5.670210165459806939e-01
5.548814459275273059e-01
5.001816214684402517e-01
5.136532670074908102e-01
4.510727493823183942e-01
5.368593450827887636e-01
5.226542543000662899e-01
5.583299129016433549e-01
4.610691266484816531e-01
5.862432085728511710e-01
5.561908661683339083e-01
5.499843942540028063e-01
4.795617166356795913e-01
5.091062503610570555e-01
5.727694391591169332e-01
5.899564521113703774e-01
5.893931192383913276e-01
5.516747974261467791e-01
6.271944744900914692e-01
6.149713647448661336e-01
6.045401996795805033e-01
7.156590757955839655e-01
5.755557624439103792e-01
6.521399060306455331e-01
5.990070976504198175e-01
6.860700418125347255e-01
6.458301732771838388e-01
6.792205410945312272e-01
7.596568904025633451e-01
6.148298741355190389e-01
8.372383455637585348e-01
8.440893633295054599e-01
7.875349904107648014e-01
9.034310709060423550e-01
9.425509487280988585e-01
1.074244319183480290e+00
1.014844558995849688e+00
1.129678802526686621e+00
1.127275181501926848e+00
1.354402400142499019e+00
1.303791037345990222e+00
1.435997475613594032e+00
1.485639946313008330e+00
1.700734496100176241e+00
1.957055606617452703e+00
2.408990568822346745e+00
2.614781023843316010e+00
3.145901271139650124e+00
3.957480077309730504e+00
5.590480844412203609e+00
1.208417778300894341e+01
2.761211554500674836e+01
4.627774743509346678e+01
5.798998809556318434e+01
6.089552935337039230e+01
5.996508377074083285e+01
5.964264093303025760e+01
5.960383286045917828e+01
5.947326484097185784e+01
5.955510183605956342e+01
5.988258807062685918e+01
6.006167705304719817e+01
6.003035311562280896e+01
6.015684845081243992e+01
6.042642447035593278e+01
6.036321063307584467e+01
6.049718585565956630e+01
6.054056673480337736e+01
6.081543535267605449e+01
6.066922144525356231e+01
6.089164498608872123e+01
6.085308085587465143e+01
6.101193475959882306e+01
6.077733554224588630e+01
6.098734350969962748e+01
6.095303239098397796e+01
6.094650683195713725e+01
6.119526107729227959e+01
6.113255585779016599e+01
6.117292882256429465e+01
6.112621022141907901e+01
6.118812293169092698e+01
6.127631304728424766e+01
6.143544669584316154e+01
6.143814341178491389e+01
6.137662139359623836e+01
6.149279590414231222e+01
6.152994158847535999e+01
6.159849606414238110e+01
6.152286200117450221e+01
6.148215872308699659e+01
6.154527253590976699e+01
6.154571713399298716e+01
6.148482216496460495e+01
6.159335092350328011e+01
6.163564468144495834e+01
6.171365960962360475e+01
6.165419906611832346e+01
6.156084621205717866e+01
6.172642956692258309e+01
6.176453423192445769e+01
6.162916422950497264e+01
6.164487646328772286e+01
6.171829977341401730e+01
6.178423995976169891e+01
6.175333725778728677e+01
6.189728721432568648e+01
6.195639731825807672e+01
6.202338912673376115e+01
6.203321144729192582e+01
6.191762808228337889e+01
6.199965278756884146e+01
6.195542397614337915e+01
6.187619196577301750e+01
6.193954446182652163e+01
6.183430508182433272e+01
6.204976615196123646e+01
6.198620925810581639e+01
6.176765086852652331e+01
6.178062138041819651e+01
6.182680344998387056e+01
6.175880795830200043e+01
6.174190837659176623e+01
6.177244415367393060e+01
6.186746596987652680e+01
6.176831109061132707e+01
6.177939843228529782e+01
6.170608637281370079e+01
6.184764342884746213e+01
6.174166372628461374e+01
6.185721250245202896e+01
6.180047760005888335e+01
6.172343742991688487e+01
6.172062915990991883e+01
6.167702446467117738e+01
6.179557862678395708e+01
6.171668805479480824e+01
6.176366131880789112e+01
6.172094045947363838e+01
6.164461937313170381e+01
6.164262828977112463e+01
6.153044160961312770e+01
6.156000181956381567e+01
6.167253873701984901e+01
6.172723188643325898e+01
6.162871851891632957e+01
6.157274811081365584e+01
6.168783408424484804e+01
6.174448989753769013e+01
6.169942205387508949e+01
6.164974226363916188e+01
6.170635398121358151e+01
6.176327538016168717e+01
6.152576625015696266e+01
6.162127109648909595e+01
6.177233361097906084e+01
6.156090082601452451e+01
6.158312688693195724e+01
6.159803720574751651e+01
6.169718116222097848e+01
6.147847511267465137e+01
6.157862093188892771e+01
6.140462470116167282e+01
6.152759409846581917e+01
6.145383026018667749e+01
6.152312333908235331e+01
6.156868928227587645e+01
6.144254610598976285e+01
6.152400252269070080e+01
6.148102174136501930e+01
6.151961378538493364e+01
6.149576771261544650e+01
6.154840009530887812e+01
6.153649425220468316e+01
6.163475133866889877e+01
6.168275619968419932e+01
6.146902608864301243e+01
6.172969730214576600e+01
6.154463496850910076e+01
6.174609645816691028e+01
6.170867123127342069e+01
6.159368315842175434e+01
6.179230391310812820e+01
6.167090800465423683e+01
6.162607156236066430e+01
6.184609380831987835e+01
6.160237405979368930e+01
6.171667207515621811e+01
6.163191444689551446e+01
6.178633571987636941e+01
6.161689843995933558e+01
6.173960670162688302e+01
6.179871498509421457e+01
6.187504133056264521e+01
6.182640325102555323e+01
6.197781155278824627e+01
6.200864962824839921e+01
6.198709137468411257e+01
6.180636184961384316e+01
6.206309013753268289e+01
6.201044440476669450e+01
6.199829047269751925e+01
6.200676261481856244e+01
6.196801239259637128e+01
6.202145821986643881e+01
6.178914075350541424e+01
6.179697886801684348e+01
6.185623187847277649e+01
6.178379424917189766e+01
6.171906052563637246e+01
6.168892009293539758e+01
6.182279529106038041e+01
6.173808357898820276e+01
6.156427637323808710e+01
6.158623158937906084e+01
6.147108179852084220e+01
6.152301239183669423e+01
6.137333049800437834e+01
6.149158104696378047e+01
6.152001368093046096e+01
6.139265847929765840e+01
6.127544691034462687e+01
6.146237714252283268e+01
6.158700184847624115e+01
6.147469845626224583e+01
6.147376496210878116e+01
6.149622616646485795e+01
6.144324476012076275e+01
6.138763045526044237e+01
6.132093275306630176e+01
6.134601360699759454e+01
6.148840028952493242e+01
6.164331197562979980e+01
6.140721067212981410e+01
6.148169824649971105e+01
6.162534984900663915e+01
6.174955008312485916e+01
6.180426275197736175e+01
6.171755965313072778e+01
6.180855824100429885e+01
6.168494035350639848e+01
6.175438837422269245e+01
6.156796433253788337e+01
6.167185110681931803e+01
6.178651169819072209e+01
6.160558960834292463e+01
6.158245918071683178e+01
6.162102877232565135e+01
6.160608366240001743e+01
6.141658677641188291e+01
6.154527253591083280e+01
6.143092122136828692e+01
6.137179311505504842e+01
6.141984035246508000e+01
6.141386245008433775e+01
6.150491757351694133e+01
6.139663285847036178e+01
6.134967021383947383e+01
6.154592284657252321e+01
6.152712512637464215e+01
6.142425487969148179e+01
6.146055495789212131e+01
6.144606304268744879e+01
6.140946592523340541e+01
6.142731235117236110e+01
6.148126042459480090e+01
6.136835708792804667e+01
6.146278472447947649e+01
6.143828449784431456e+01
6.155454345775390124e+01
6.152214402988504816e+01
6.185999012795984697e+01
6.145143746081556202e+01
6.150004914360600594e+01
6.150206561234155345e+01
6.172329017450054067e+01
6.189332507272411021e+01
6.162246764787649767e+01
6.184199594091943908e+01
6.196957253136245924e+01
6.188602814209572500e+01
6.169392131568159243e+01
6.179969732840155672e+01
6.182089421959955189e+01
6.192988871384432770e+01
6.194252203510540511e+01
6.162286390249099810e+01
6.167810804607623254e+01
6.167478559575346253e+01
6.177686394002853376e+01
6.164638755062448894e+01
6.154093032160629662e+01
6.162972857375100233e+01
6.146322173728629679e+01
6.171411108502146448e+01
6.162905753001099640e+01
6.151740424618606085e+01
6.155340890332195869e+01
6.151362496021112491e+01
6.148472062345811651e+01
6.153819901683004190e+01
6.153063569144320866e+01
6.141921512376701031e+01
6.139477841114268131e+01
6.134498939298772058e+01
6.133363980317744080e+01
6.144863869768237663e+01
6.156451111212766136e+01
6.151223038265057852e+01
6.122409724773704909e+01
6.123908655451683813e+01
6.125543514206064799e+01
6.124297233771412152e+01
6.100732989260532690e+01
6.100308122999582139e+01
6.094314180297676131e+01
6.084333175847399389e+01
6.085894255188368618e+01
6.084404608883357923e+01
6.093664011227171784e+01
6.101127302045951950e+01
6.103474235804779369e+01
6.110268080847773575e+01
6.107877708764528535e+01
6.126464113397415900e+01
6.118274547945092934e+01
6.127440277235788102e+01
6.134799750963352238e+01
6.136000813062543813e+01
6.139288118288388318e+01
6.145417432813123071e+01
6.140394141984916843e+01
6.154243766688165351e+01
6.160265511940656324e+01
6.163873674176692674e+01
6.172193413011939356e+01
6.160108972151923012e+01
6.154805481371953846e+01
6.155103056653807414e+01
6.151058973886539860e+01
6.160678261993768956e+01
6.131619044094509263e+01
6.165182558390588241e+01
6.149696709584235776e+01
6.151871922895936251e+01
6.148222254051020741e+01
6.157548902360602483e+01
6.149344459661084272e+01
6.151963128207629694e+01
6.137701916526616230e+01
6.147193681039323820e+01
6.134478378154760492e+01
6.132248348609515887e+01
6.128548030374204103e+01
6.146842725669484508e+01
6.141801725759437858e+01
6.124500549404616834e+01
6.108194742797532228e+01
6.111140447822553057e+01
6.130379944383793145e+01
6.118667080720324236e+01
6.130541278064988120e+01
6.115536274828050267e+01
6.100575842650101777e+01
6.088418289880146261e+01
6.100673369021963310e+01
6.099695071194016549e+01
6.098036536276980257e+01
6.086724741346928624e+01
6.080553525779355084e+01
6.069369567968384160e+01
6.097396207832933612e+01
6.100912871460308651e+01
6.105124922493472184e+01
6.091612599669910111e+01
6.083490512798295669e+01
6.082577711266849008e+01
6.066457228027652349e+01
6.090527622575105937e+01
6.097541157325913730e+01
6.108893042947764229e+01
6.106582821905916347e+01
6.125121196596024475e+01
6.105841285704752863e+01
6.111029237619779053e+01
6.115484179179264856e+01
6.130692053047089018e+01
6.106317873407962082e+01
6.097924264136189265e+01
6.092636065265120493e+01
6.096259327249531168e+01
6.109672869602533041e+01
6.095364244913316298e+01
6.104601012805639471e+01
6.084660313463140113e+01
6.095137081184613947e+01
6.123352837052738096e+01
6.109076222212253526e+01
6.123767377230633002e+01
6.108897401950620321e+01
6.108777605219812301e+01
6.119953644006284321e+01
6.132799878801650095e+01
6.110567436139615438e+01
6.126285495409948112e+01
6.120737677958916834e+01
6.126015884498187347e+01
6.128359399827426301e+01
6.142126476542693325e+01
6.140095049649033143e+01
6.156412699394773114e+01
6.148956710664996450e+01
6.143049118700720612e+01
6.128952942313000563e+01
6.129107479590145147e+01
6.118964271680941636e+01
6.132861602688751645e+01
6.121670261880192498e+01
6.134183998800840243e+01
6.136281559153752596e+01
6.136730465670536461e+01
6.151128363955668021e+01
6.157827645940084693e+01
6.151753542082664694e+01
6.139883430671133624e+01
6.137877864498496905e+01
6.137863685096269251e+01
6.140213470917367289e+01
6.156418858635729663e+01
6.141663977217864812e+01
6.154367123439984510e+01
6.169407635864003225e+01
6.157802189766977108e+01
6.173307143345139991e+01
6.168786341396555883e+01
6.200429871616757538e+01
6.164994140231341646e+01
6.174777836583736246e+01
6.163891140529827339e+01
6.163416990227724312e+01
6.171078499376941551e+01
6.162136009701484340e+01
6.169085696688625120e+01
6.167080565404751269e+01
6.166587451921699881e+01
6.150972754626728545e+01
6.154715843683269583e+01
6.182449661703261512e+01
6.157924494694403705e+01
6.156290141625268575e+01
6.165454717954056463e+01
6.170207012293902693e+01
6.158747071942713802e+01
6.151233859919931746e+01
6.162483445504985724e+01
6.185923493827189645e+01
6.182469464319948571e+01
6.166364920266034488e+01
6.159100404031084253e+01
6.173041739730834365e+01
6.158173352301628256e+01
6.156437134084587370e+01
6.138622040374168876e+01
6.131467551040242370e+01
6.121897445836852114e+01
6.119656958730091389e+01
6.120199224776204261e+01
6.113393647845149559e+01
6.109486797820633797e+01
6.122289877474336350e+01
6.109641861009860264e+01
6.116388545888024453e+01
6.124832956256172167e+01
6.107874158856928659e+01
6.140569796659557511e+01
6.138616417159048666e+01
6.140728045663340140e+01
6.138220941298725819e+01
6.133140487860192280e+01
6.133293700243123681e+01
6.129744612105884727e+01
6.135069169714933679e+01
6.139525476623191480e+01
6.147981902062016957e+01
6.151276468921972196e+01
6.154606858493499288e+01
6.163113144454641912e+01
6.165486879507923845e+01
6.155274534371653061e+01
6.160947761655135224e+01
6.149592750901661731e+01
6.152434709631896226e+01
6.151005735389917106e+01
6.161993912270504836e+01
6.155090363964981037e+01
6.157076724228836895e+01
6.150783770100522219e+01
6.170424031985589863e+01
6.183093590622600999e+01
6.176093972317492842e+01
6.183194262354445669e+01
6.192408800342131059e+01
6.203533127800373848e+01
6.176546600674757315e+01
6.195393261050568157e+01
6.164493269543626042e+01
6.161985720176469528e+01
6.158027745418164756e+01
6.154845450699364307e+01
6.161834237235621714e+01
6.143763428831817919e+01
6.148856959279905254e+01
6.151555910346376521e+01
6.149972530305394258e+01
6.136626254145576809e+01
6.162549609305288811e+01
6.143422445566717727e+01
6.159165050777085781e+01
6.176738052942760504e+01
6.163598247889700588e+01
6.161792639603643096e+01
6.154055520461776752e+01
6.151002054004523956e+01
6.159118335614532214e+01
6.163294209956365677e+01
6.154343548414320253e+01
6.157008032004500109e+01
6.157748637745636699e+01
6.147684205416189940e+01
6.157555152624576067e+01
6.166448489736635707e+01
6.166214448694643835e+01
6.154000744683644086e+01
6.161052256363840485e+01
6.167387253126608471e+01
6.178326712333210224e+01
6.165544082573003948e+01
6.155624124392579688e+01
6.163242276126727859e+01
6.158876537366907655e+01
6.135574723043976775e+01
6.142856169605872196e+01
6.142853782773378413e+01
6.137132879526661355e+01
6.126681021838445673e+01
6.129225860403507653e+01
6.132258715148417139e+01
6.131729576679496319e+01
6.141750085226708222e+01
6.136850019672886702e+01
6.150962479111203862e+01
6.148389322197392914e+01
6.139222025284163919e+01
6.162184029530516227e+01
6.144122717887591989e+01
6.144900582485432494e+01
6.145605941995229671e+01
6.146016386126189701e+01
6.156433887588148934e+01
6.150054218629228586e+01
6.131608222439675870e+01
6.132853764574461763e+01
6.125405593731959186e+01
6.132619672963469526e+01
6.125452450486000799e+01
6.129687550632423410e+01
6.113655906099921111e+01
6.137685805408440842e+01
6.138914518353119831e+01
6.111481107449831285e+01
6.132659885019413082e+01
6.117935880715923247e+01
6.122766535973660496e+01
6.121089422197229624e+01
6.126658609887760321e+01
6.115551940943165476e+01
6.114722729110396671e+01
6.107714696209875882e+01
6.114272517926271178e+01
6.117841631181669015e+01
6.100570158752684335e+01
6.108348015862365799e+01
6.130083643428223894e+01
6.117780918663964229e+01
6.104907295979359816e+01
6.113481151544195313e+01
6.125844143824088661e+01
6.136534128487396345e+01
6.125703361173388117e+01
6.117604424552548181e+01
6.123354637290795210e+01
6.147495969303356134e+01
6.139688175653100188e+01
6.124052735167291672e+01
6.114287961540320282e+01
6.124015051535413789e+01
6.123392877175674442e+01
6.126528325254115970e+01
6.137741177895028244e+01
6.147824806019588806e+01
6.111872709764516287e+01
6.125784887678211987e+01
6.114480920749012682e+01
6.111985356112076317e+01
6.109323289695176129e+01
6.117365296320809875e+01
6.117798607518437848e+01
6.113676608835845627e+01
6.105846807782880603e+01
6.092032581016016479e+01
6.101880438656528582e+01
6.128677283410912224e+01
6.121737244889861529e+01
6.106073121961441785e+01
6.097519331969962053e+01
6.104590292287667808e+01
6.088576053426255186e+01
6.098769253335291296e+01
6.100431682024989755e+01
6.090100885280187271e+01
6.093535536945380215e+01
6.101285166729380904e+01
6.116511356500731722e+01
6.112748758124013904e+01
6.120611964715659781e+01
6.095440755024792878e+01
6.096745462282159878e+01
6.107060835640308483e+01
6.124535542793334741e+01
6.120316988654117552e+01
6.126412806616996676e+01
6.098440042412098450e+01
6.122386169975337822e+01
6.123965787721275689e+01
6.116098070421359978e+01
6.149903463874530729e+01
6.161168988644855915e+01
6.144068639954395650e+01
6.162977347856396904e+01
6.167657501201392023e+01
6.137686371775251359e+01
6.156834713593619313e+01
6.138779399372516821e+01
6.149317547115565930e+01
6.143105704830720271e+01
6.139652514760427948e+01
6.147656342182948919e+01
6.133742192098289792e+01
6.132674974654068478e+01
6.119259450016986079e+01
6.127839474935952779e+01
6.126420472798506722e+01
6.137512213928124538e+01
6.131197656944604546e+01
6.153324644096345253e+01
6.141081256387351317e+01
6.122896365491020276e+01
6.131181586281684304e+01
6.154800657139205811e+01
6.155698409491144218e+01
6.153987060853115310e+01
6.135978785432443772e+01
6.145498008629972020e+01
6.149891549940744540e+01
6.129017447466892321e+01
6.111187264121753060e+01
6.114745828792000992e+01
6.118554899602325747e+01
6.129078392599931391e+01
6.104095510045045359e+01
6.138072988037796307e+01
6.117959263581485629e+01
6.098607858972361129e+01
6.109211644603819025e+01
6.121753629077461767e+01
6.127162019113505664e+01
6.113421430168520487e+01
6.120267927114372952e+01
6.117830961232520792e+01
6.119677479419367216e+01
6.105632892995770078e+01
6.118604466827101618e+01
6.117135968260752321e+01
6.130022758977384711e+01
6.131351617740995863e+01
6.122118339074090443e+01
6.133898802683008711e+01
6.144625752906549820e+01
6.155378159302740215e+01
6.169921664470568601e+01
6.154788348770588868e+01
6.159199366547866106e+01
6.161874793157416974e+01
6.160839191127171688e+01
6.155873305638282744e+01
6.164060757327897022e+01
6.158384040819579042e+01
6.160306836502758188e+01
6.152440686826196981e+01
6.141209872261264024e+01
6.151405388206747915e+01
6.144427908782508752e+01
6.154541483561856552e+01
6.139345078625451180e+01
6.150274505045120321e+01
6.149304065558859378e+01
6.158434578959365524e+01
6.138554571907196333e+01
6.134424704769112680e+01
6.115074847555013093e+01
6.111458483111429274e+01
6.114141221922844238e+01
6.107570141150843313e+01
6.129874957421731096e+01
6.125944087369232705e+01
6.128977710755077624e+01
6.133998584409877708e+01
6.117966140895220661e+01
6.102206807631171159e+01
6.114340077416443364e+01
6.093884833669075363e+01
6.101335492481156564e+01
6.109330156894856856e+01
6.110168784579075663e+01
6.122344400410104726e+01
6.094565131440172223e+01
6.067347678290344248e+01
6.089779684404413018e+01
6.090210467177740838e+01
6.081956153843205470e+01
6.097923960725399439e+01
6.095257879171060722e+01
6.095553907057382048e+01
6.100665783749948190e+01
6.088349031288891666e+01
6.110100587925956717e+01
6.107818948189907360e+01
6.091294119378605387e+01
6.109292807015288673e+01
6.136937836896443343e+01
6.137042584447193150e+01
6.114827780072071306e+01
6.137441721465425815e+01
6.150490220070026481e+01
6.156596738323347751e+01
6.166904941071277335e+01
6.152525702555676190e+01
6.169419620593875919e+01
6.204736738550925423e+01
6.186050845488706074e+01
6.167044833716264662e+01
6.164313407571619052e+01
6.164012838635827052e+01
6.140636314439332466e+01
6.136533875644805391e+01
6.127338644702917492e+01
6.147870267084192619e+01
6.128153353495761735e+01
6.122214550665772492e+01
6.112789263477362312e+01
6.111483979739259098e+01
6.110093730840284110e+01
6.120903057118317037e+01
6.116071845607240220e+01
6.116173124160521724e+01
6.111201605342875354e+01
6.120839179013187703e+01
6.115089795598296973e+01
6.097734733470493751e+01
6.101553725816292229e+01
6.105592003322000494e+01
6.098463435391374077e+01
6.102499538452524774e+01
6.098728808664203171e+01
6.134220044014011819e+01
6.116857052748656542e+01
6.123227012558864857e+01
6.114813459078281710e+01
6.093942987421832669e+01
6.098033522395589046e+01
6.105473379780085708e+01
6.109397645589495340e+01
6.111674663366444804e+01
6.118048233766801047e+01
6.109134021985669705e+01
6.097903207420760907e+01
6.123194062137272908e+01
6.118162033075464734e+01
6.093143964971600468e+01
6.105465228141164147e+01
6.121161664328440821e+01
6.119804102895160725e+01
6.110235140539472809e+01
6.116952890133085674e+01
6.109372755783136455e+01
6.134941282027092768e+01
6.110309981891040820e+01
6.114390645897653087e+01
6.102860890701871455e+01
6.126603884678020506e+01
6.101019338339804676e+01
6.095463905275181560e+01
6.086842100677068146e+01
6.094251030378768519e+01
6.140376726200149449e+01
6.125608484590284064e+01
6.120215467372369034e+01
6.121325637683985832e+01
6.131019878393865241e+01
6.113643294320875299e+01
6.106556485841395698e+01
6.110232055862112333e+01
6.100998858105048583e+01
6.098719180425827346e+01
6.104576274704736250e+01
6.116555684830978379e+01
6.122183440936101562e+01
6.105994498087591893e+01
6.117097859853615205e+01
6.114858121160316529e+01
6.116367681333119322e+01
6.124859777778468839e+01
6.108207647873555857e+01
6.112586180458581708e+01
6.120900437670884742e+01
6.125045303420198195e+01
6.119458679717020289e+01
6.121203049573320243e+01
6.118122346931956912e+01
6.102421298899031399e+01
6.099250715840147308e+01
6.088059284008144800e+01
6.105294084174791891e+01
6.099725796602646710e+01
6.091718388931516159e+01
6.114054790275604034e+01
6.100037672650770304e+01
6.095255391201923345e+01
6.083650723858899312e+01
6.077302478154544474e+01
6.091014192496655966e+01
6.083294913915069912e+01
6.107189623447254689e+01
6.105223490575686185e+01
6.109989549655864494e+01
6.096211135487336463e+01
6.111931460225189738e+01
6.129931644688797121e+01
6.114381381751900335e+01
6.128992780162209897e+01
6.141435903256343920e+01
6.139554745659917501e+01
6.126916549594312045e+01
6.134230248733459234e+01
6.149762681224000715e+01
6.164319374652325934e+01
6.165809951417288914e+01
6.152720391206648998e+01
6.167762016137344716e+01
6.179112162203157510e+01
6.155693534689196156e+01
6.131853914460333499e+01
6.153835881322712709e+01
6.162676869943768310e+01
6.166490198619877816e+01
6.143375750631522436e+01
6.151740768484211230e+01
6.151846143084869567e+01
6.155239369050187292e+01
6.168124278619660572e+01
6.139259385277800618e+01
6.156436112601348754e+01
6.129100157273710181e+01
6.134885636470598058e+01
6.126082331481764243e+01
6.145407046047336053e+01
6.147730404779864699e+01
6.135999801693093758e+01
6.146677113895255218e+01
6.137463708641345050e+01
6.126863027914203030e+01
6.105060488134965624e+01
6.127382366211564602e+01
6.133304805081245092e+01
6.113358411727829633e+01
6.095397599883196449e+01
6.126593669844880452e+01
6.117273322368029653e+01
6.099773634385343968e+01
6.124816572068548481e+01
6.130219298434655428e+01
6.124403801787541823e+01
6.131286273150581678e+01
6.134550225851724292e+01
6.137654675451693009e+01
6.148439870450860667e+01
6.136229433163949665e+01
6.133878767451368930e+01
6.136818555964011779e+01
6.139328178638869815e+01
6.138138838313555823e+01
6.121894917412568304e+01
6.113509945237338883e+01
6.128024353301648119e+01
6.111532980597542064e+01
6.100888902000399838e+01
6.094342660466023176e+01
6.113849037241539719e+01
6.119620943858088680e+01
6.120563884204141658e+01
6.115600901346400065e+01
6.125857918677996139e+01
6.128220680371052254e+01
6.110184491149333752e+01
6.141211925341507083e+01
6.124096699404277899e+01
6.131730638617621310e+01
6.124964838853767901e+01
6.149044315500949409e+01
6.168014170809708929e+01
6.157609432832164487e+01
6.158938018525739722e+01
6.151248089890620463e+01
6.152340166800085086e+01
6.170871512471457265e+01
6.148589249742988727e+01
6.188455053108859261e+01
6.175079113478145132e+01
6.167392704408735682e+01
6.175056630731368301e+01
6.165170442182813559e+01
6.176931811133388806e+01
6.178436476277499878e+01
6.162517700593981829e+01
6.159394581110933586e+01
6.177339797636044239e+01
6.182421110738661696e+01
6.170788610504047966e+01
6.162559379135505111e+01
6.167593299458283695e+01
6.159751766517802452e+01
6.162605517817157619e+01
6.161690460931400537e+01
6.155833447561990113e+01
6.156908128913911327e+01
6.181829054966373604e+01
6.182752738835404926e+01
6.172442806645599234e+01
6.159607646347384247e+01
6.171600355984016062e+01
6.146565347439053539e+01
6.181931982052449115e+01
6.194815546499584258e+01
6.189040201226339377e+01
6.201881126331220173e+01
6.200021976137487911e+01
6.194023755342442428e+01
6.196320575736552883e+01
6.178798111710365504e+01
6.192651620072733465e+01
6.185508781716747251e+01
6.196374714352027269e+01
6.215693097743699980e+01
6.230194964824803350e+01
6.221889779597899661e+01
6.205594390097965629e+01
6.212317762906271668e+01
6.218632421026397594e+01
6.226751767086366129e+01
6.231290551186801707e+01
6.241049549893210724e+01
6.230373613153388845e+01
6.236650081956973679e+01
6.235694185965939340e+01
6.236185266595875731e+01
6.240070776721476165e+01
6.228841590461629352e+01
6.221981207411208459e+01
6.242349534054293514e+01
6.233486942578512213e+01
6.235583926450431846e+01
6.235025630195931967e+01
6.223984315955668478e+01
6.220778324846701679e+01
6.212082579016365003e+01
6.226500087757968771e+01
6.220537790811361134e+01
6.236699345770681902e+01
6.234840741716769941e+01
6.233944486192132217e+01
6.219842373064437879e+01
6.214196857308647282e+01
6.226608931356035725e+01
6.223601259714452993e+01
6.270087175051345696e+01
6.278190683063324684e+01
6.288784800000802733e+01
6.289311389817789433e+01
6.291548438268259957e+01
6.287501048321779251e+01
6.306371900658988494e+01
6.307234811327967350e+01
6.305365860962693603e+01
6.309513265249848502e+01
6.313750823024709291e+01
6.303652176060623447e+01
6.289151077620395824e+01
6.296782731138645772e+01
6.265335730261941904e+01
6.266766383377144223e+01
6.251469043753299815e+01
6.256515950061589848e+01
6.256216099198388036e+01
6.245219629087083746e+01
6.251157946459979087e+01
6.251005927493165615e+01
6.270474974616350750e+01
6.248634326429495900e+01
6.253801150833375289e+01
6.268614246685876168e+01
6.268204247557965658e+01
6.254901086084621653e+01
6.255752639072664323e+01
6.267492840057440873e+01
6.241523902469658225e+01
6.241955939341286097e+01
6.255701180586923016e+01
6.262717304444000632e+01
6.263446350230661608e+01
6.269592696219373806e+01
6.279444032971417045e+01
6.297673636518044304e+01
6.296039354244520325e+01
6.280110707593932773e+01
6.293971042700988505e+01
6.295709556727241107e+01
6.299456903649500106e+01
6.307010014203540038e+01
6.305460535272389677e+01
6.305357001364843228e+01
6.308542107691186374e+01
6.278154213074696344e+01
6.274849057174981937e+01
6.289443545485469400e+01
6.271412494021195982e+01
6.274120132752955925e+01
6.271818063350289663e+01
6.269075502025957292e+01
6.269028999251195700e+01
6.266781078577607644e+01
6.258582380457932715e+01
6.262953236747652142e+01
6.265216479670834104e+01
6.271700855725625701e+01
6.266602672977808908e+01
6.287074371708860809e+01
6.274068461879291192e+01
6.266650156781115300e+01
6.265399193705197689e+01
6.263854265936969057e+01
6.325184032876553886e+01
6.285466476068523889e+01
6.271708653385500298e+01
6.270681132198359364e+01
6.244804431519332155e+01
6.250158167141371734e+01
6.232299483400276330e+01
6.239345897777623406e+01
6.246680532267485830e+01
6.222190146259912780e+01
6.220930374154453091e+01
6.237122088156043986e+01
6.237471880450640072e+01
6.220283299875227812e+01
6.219024438002777089e+01
6.229477954336720558e+01
6.220470757233503889e+01
6.210266715442059393e+01
6.208594607945011745e+01
6.238866913128496350e+01
6.237627965123520823e+01
6.255435908450741067e+01
6.228979076047036756e+01
6.230578375045578099e+01
6.237862491623508276e+01
6.254785203354231271e+01
6.245507748062644993e+01
6.248118275083853490e+01
6.252046839214168727e+01
6.244870878502652545e+01
6.233198833716349441e+01
6.225311961076197775e+01
6.222931743143272598e+01
6.222446508229620576e+01
6.244831202472727227e+01
6.256354869222923298e+01
6.260840323804288232e+01
6.245713278595928841e+01
6.242069232965832271e+01
6.252561747712005769e+01
6.237574473784334117e+01
6.242459591295772015e+01
6.266846402940997507e+01
6.280073893739716340e+01
6.260727313363349111e+01
6.256094188705012726e+01
6.247692973933904881e+01
6.233009434528693049e+01
6.246283519125452699e+01
6.239297807152684072e+01
6.233582911441192209e+01
6.220866981507020910e+01
6.204615677608128266e+01
6.203688524741392740e+01
6.208746353842056465e+01
6.195998211785816778e+01
6.197634921346369907e+01
6.193792091018523394e+01
6.199795823778096349e+01
6.198512881194800883e+01
6.202130570532872866e+01
6.201410343889492793e+01
6.188175783617163717e+01
6.203914050051587736e+01
6.211426695707568513e+01
6.202051329723312278e+01
6.208924193074940234e+01
6.212812130487583318e+01
6.218399037374256721e+01
6.214089227354144640e+01
6.215029032455004199e+01
6.228819502148965626e+01
6.235418840588501865e+01
6.236914585452008453e+01
6.254166123786148290e+01
6.261927748413572914e+01
6.269330185122373678e+01
6.270437634849720610e+01
6.262762816076708816e+01
6.271569296766252677e+01
6.278117995929132178e+01
6.254279124113347876e+01
6.265644066515991284e+01
6.268784925422021814e+01
6.271561367628836337e+01
6.271435037449825245e+01
6.259459723370932238e+01
6.261536530419061108e+01
6.239064646001755676e+01
6.259004253065116785e+01
6.242769363694917928e+01
6.243830027464332488e+01
6.238817669541607813e+01
6.225780589300625678e+01
6.240701709541767883e+01
6.231645592489805097e+01
6.262745410405547375e+01
6.265265642347762309e+01
6.246772101672592470e+01
6.247388976455106047e+01
6.242546093738859980e+01
6.225890383585740295e+01
6.221726787271126113e+01
6.228519954696623984e+01
6.220898414874729099e+01
6.219103506879155674e+01
6.240861677873157731e+01
6.231038588674913115e+01
6.229157835626231332e+01
6.235697948261069001e+01
6.223204297140696895e+01
6.197197433192029337e+01
6.211462629669667024e+01
6.201343472130304946e+01
6.221399467608652145e+01
6.226560790162228898e+01
6.239166753877890415e+01
6.228744316932163372e+01
6.249199479770152976e+01
6.251171357221061697e+01
6.262269115999232838e+01
6.251036521423888814e+01
6.270782906322480699e+01
6.281083250728654122e+01
6.279997778062620739e+01
6.268576512485565644e+01
6.267838516078076339e+01
6.262608663119776509e+01
6.265973054937669673e+01
6.263146853346484733e+01
6.261677930005078707e+01
6.253718137615159378e+01
6.258429238870827049e+01
6.269375656300413624e+01
6.260585155250538492e+01
6.238864162202747110e+01
6.229931078265016708e+01
6.228182116790572564e+01
6.226479213089132259e+01
6.230893103155811730e+01
6.258528717186131018e+01
6.243060132458835909e+01
6.225463403562061870e+01
6.231163148956493814e+01
6.224029564632424893e+01
6.220304225112594310e+01
6.229004208581848445e+01
6.225159557788843046e+01
6.238992252164608487e+01
6.234542306771251674e+01
6.245966808730678110e+01
6.246243013772556907e+01
6.239710830275506481e+01
6.236677247344597674e+01
6.221002585944904695e+01
6.228114334799272456e+01
6.223274132212563359e+01
6.203030982786825120e+01
6.190735458973924210e+01
6.199310042724977876e+01
6.205116973071077524e+01
6.204176631944601894e+01
6.205870362524368034e+01
6.195046816389280053e+01
6.208241852337123134e+01
6.213224981678045822e+01
6.232864040032864494e+01
6.234191492992435002e+01
6.222856952360363891e+01
6.221784222951464471e+01
6.204133598167565822e+01
6.211673611485163349e+01
6.232558222088890432e+01
6.221919230681316293e+01
6.226788631508691907e+01
6.250071856858338748e+01
6.231232336751728695e+01
6.240010317045857136e+01
6.226493807152533577e+01
6.225715679598339847e+01
6.213987261069588186e+01
6.219621520281677363e+01
6.238103612252926666e+01
6.244417461277405579e+01
6.241919964924343844e+01
6.224302937839178895e+01
6.235558965848621682e+01
6.245731938365328517e+01
6.241160456684745128e+01
6.244184836152064833e+01
6.245130760038983198e+01
6.229170548542243324e+01
6.259632091094085382e+01
6.239222986028384810e+01
6.236515266387005596e+01
6.220382565802945862e+01
6.227637858346488287e+01
6.240802472296107339e+01
6.235041094037327269e+01
6.248474621053792788e+01
6.242089794109668333e+01
6.243322623328732845e+01
6.213535472149428074e+01
6.227193270377776457e+01
6.226805652859508200e+01
6.225362762171889131e+01
6.229122832123678677e+01
6.222161443590242413e+01
6.214666082241146228e+01
6.213035086918755923e+01
6.223332012895836840e+01
6.214171461817685582e+01
6.226480679574680721e+01
6.211285012938188288e+01
6.202772992511895467e+01
6.209112115662934173e+01
6.210824859991109292e+01
6.215404645015845375e+01
6.203655220339844334e+01
6.191400090629540642e+01
6.195034224837579018e+01
6.206318621764538079e+01
6.188498299273199876e+01
6.211278105283632556e+01
6.204769587835986044e+01
6.227920121492316241e+01
6.243556431756044844e+01
6.225226257615018710e+01
6.263009367761563340e+01
6.242936735252369118e+01
6.253231547466508289e+01
6.237606827498395745e+01
6.261661343543236313e+01
6.259168964720448969e+01
6.260348959990880502e+01
6.253170834948639367e+01
6.235589721598151414e+01
6.232125335666592036e+01
6.234971865787399992e+01
6.241578496201460524e+01
6.252706818569667746e+01
6.228163457021573635e+01
6.245184443537940666e+01
6.247816300344705809e+01
6.226064834730386366e+01
6.203996891336924335e+01
6.205500332723541135e+01
6.203350110354936930e+01
6.188096107918687494e+01
6.166913982715487919e+01
6.123082275453732137e+01
6.009712515347965933e+01
5.710012619224571750e+01
3.916452299255453084e+01
3.410505013339562019e-01
1.833590658450810484e-01
1.195553978039233245e-01
1.927909977310731937e-01
-1.026803316950398864e-01
1.023089365403173634e-02
-4.746733829823956974e-02
1.224635101947413145e-02
-1.167385513886964876e-02
-1.256757414789192451e-01
1.032687263301512726e-02
7.253510510280358758e-02
-6.959125088555995209e-02
-1.194733150441813357e-01
3.927874375859580214e-02
5.431052806475678701e-02
4.626073389213376102e-02
-9.213650005618412298e-02
-7.242996312124272418e-02
4.140787907076726171e-02
-7.233408527885422379e-02
6.636180611408909469e-02
9.860285350312467112e-02
-7.672514873433709803e-02
-3.322065999427525462e-03
6.918453870505092418e-02
-6.189310993220686896e-02
1.738565403578704038e-01
3.367211516582940822e-02
3.011259980612901108e-02
2.888742665609400628e-02
4.272721073302088168e-02
-1.085960146461362012e-02
-3.117154425094248449e-02
-7.618851601779264016e-02
6.900997631196087445e-02
5.501830472246393988e-03
4.785161829573703063e-02
3.460055247358856390e-02
2.274082782552133697e-02
-1.816027415948207047e-02
3.108361577448959245e-02
2.226611113869458869e-03
3.474113284815510960e-02
-5.396283944231416996e-03
7.457718169999071577e-03
2.063958406453884065e-01
1.866005054542415331e-01
6.378321814629389630e-02
-1.859524401304768482e-03
6.852785641780567705e-02
-5.717689114334056910e-02
3.495018294724022700e-02
5.077063327360092915e-02
1.452411518968743098e-01
7.747837636812886231e-02
1.541851181866393805e-02
2.078099578865044705e-02
1.953711229677624131e-02
1.933888385725746062e-02
1.058703532779652762e-01
4.203553505619039843e-02
2.532267259043319285e-04
-1.706465745708185544e-02
-3.057564527454925685e-02
2.947786423918136167e-02
-4.599276139800855673e-02
6.012671244089629052e-02
1.201727580422751185e-02
2.724607490884062289e-02
2.522444818694913327e-02
5.804571832326183012e-02
1.325842859409253997e-02
-2.242825393076575136e-02
8.364904579453397160e-02
5.337440434612588519e-02
6.812160946745748902e-03
-4.124245945697525145e-02
7.448684618444711969e-02
2.147064872521720069e-02
4.086780769791908963e-02
5.156364818938435901e-02
3.623866783438872696e-02
6.633783665632436710e-02
1.053215841241161160e-01
-8.715902427722910240e-03
3.744007379845176731e-02
3.816057351354062988e-02
1.007012431767064786e-01
8.837932261777592391e-02
2.148430221484732075e-02
-8.552608711868857350e-02
8.755778708150994960e-02
2.394850428107408655e-02
3.181938716851540061e-02
5.569549761261372023e-02
-1.551291306072555276e-02
-2.351353444186132791e-03
6.359287838462224229e-02
8.003238805316358062e-02
3.443428330767189793e-02
1.062260519703854267e-01
-5.463531930236587009e-02
1.071234402289201193e-01
-5.781021079471416330e-02
5.289268900013222724e-02
1.444395605647419423e-02
-8.356461667276771088e-03
6.630951830258791091e-02
3.199587116434182699e-02
-1.837241095914611266e-01
2.162983830440723745e-02
-4.315232983751337431e-02
-3.017109742794155114e-02
1.219699618480107883e-02
9.768402420547800391e-02
2.774804596713842386e-01
-9.609672005437785991e-02
-7.325331912178777161e-02
1.067112059792043599e-01
1.635498748882440734e-01
8.749156248051282976e-04
-8.479911464031843205e-02
-9.811652630997180768e-02
-8.501896617680859691e-03
-6.950053103049924630e-02
-7.140696275558766626e-02
6.984344601304326439e-02
1.192928664729520083e-02
-2.977959624953629633e-02
6.174642087965447751e-02
3.097620832165831964e-02
-2.676003094678414129e-03
4.716198556618644844e-03
9.192639813031215634e-02
5.574465017650670484e-02
-6.551917340732116291e-02
3.796507576531860106e-02
1.239762966628294855e-01
6.141175867523391424e-02
6.408258355049240018e-02
-6.632756113700555289e-02
1.677941077169875506e-02
1.536085161286827594e-01
-3.103066046092572972e-02
1.214157312786545533e-02
3.795245387939294446e-03
9.890668915132794226e-03
-4.573737033952696152e-03
1.145121223226763622e-02
1.088665357588635141e-01
-4.062279329468654332e-02
1.954833849875836638e-02
1.019343050121975652e-01
4.674214582710389809e-02
-4.296014940190939768e-03
3.663128151850941761e-02
-4.319207666183921823e-02
-1.165016883386993168e-03
1.292740731908681440e-02
-1.028186870550703569e-01
1.156215947931671199e-02
-9.861503039615328314e-02
6.760176547665142088e-03
6.547485518779928328e-03
-1.376103074790473446e-01
3.347772992425424032e-02
-8.743626090698987385e-02
2.125696664092568695e-04
5.009706111477536111e-02
6.265806945056384691e-02
4.829793570654584284e-02
1.000003640344300782e-01
4.093051261337105062e-02
1.379994420484226270e-01
-1.724994036809612830e-02
2.173775144246048452e-02
6.669464785624640291e-02
1.618442202767800264e-02
9.574674570947638852e-02
2.049922821125793604e-02
9.971414643797858746e-02
9.953980653643612619e-03
4.975026247382624556e-02
4.601711516050265537e-03
2.661427231374957625e-02
1.092093900582872812e-01
1.453386681311663597e-02
-1.902974861701900444e-02
-4.393866971372262231e-02
-9.894696190174734340e-02
6.250363330945341023e-02
4.820185559531670744e-02
4.146178507273934333e-02
2.179641897051740884e-01
-3.116942037385228570e-02
1.061936881427229945e-01
7.225242729598901903e-02
3.194704021865000243e-01
1.052142778088862030e-01
5.529044408202687944e-02
9.546882134159501154e-02
2.294563016933904090e-02
5.794520840829320285e-03
3.072670343952788041e-02
3.721617679897537556e-03
-4.410603117351974412e-03
7.274862544146776244e-03
-5.643070264171379247e-02
3.615755599215880745e-02
1.950302914057178150e-02
-6.663428930026359630e-03
1.191351737273456668e-01
4.132638290640811007e-03
-1.167233808320733424e-02
-2.478381468279722277e-03
1.301385717212756865e-01
1.952983043577438335e-02
3.079962318628776119e-02
-9.422872037626560393e-02
1.656881125296557622e-01
3.669004209608733857e-02
-6.346508172062914621e-02
-3.502292064910372815e-03
8.809067773445426741e-02
-1.861023250086868419e-02
-1.143759919750819525e-02
-1.726124747574608875e-03
3.237879593329995743e-03
-6.321132908789173221e-02
8.468379828888370972e-03
-6.012746085456366352e-02
2.127828622460336758e-02
3.403752300713031032e-02
