-2.142457578401802287e+00
-6.020410244843499292e-02
4.628346948104457015e-01
3.553717175752305613e-01
3.953629914522827637e-01
3.562914571007458897e-01
5.417698682004248312e-01
3.248567747041592457e-01
4.069058539987206458e-01
3.144743576547607278e-01
3.987946696908686861e-01
2.764484783477382801e-01
2.176494717067479212e-01
3.637847957084166528e-01
2.357295240311891860e-01
3.473895840272309687e-01
4.178153968929304574e-01
2.676788924195984687e-01
2.766099940737118401e-01
2.668281283031225248e-01
3.567373699639375673e-01
2.202913714149158375e-01
3.339519205104293786e-01
3.055468969315363603e-01
3.564043259494453775e-01
3.611716189002063260e-01
3.058644669896340429e-01
3.398861317252356851e-01
3.334458311576564693e-01
2.962601977245464813e-01
3.042540631561775899e-01
4.382813712718977572e-01
3.507417686155324676e-01
3.359253048986273749e-01
2.501749162307503882e-01
2.470730456239292883e-01
4.139233432036483751e-01
3.301625208425771896e-01
3.561306493321724775e-01
5.100066929510549407e-01
4.183667956052084524e-01
4.731191101465775928e-01
4.571851841452008181e-01
3.994868510554034358e-01
3.721084687694830584e-01
3.728358457992759778e-01
5.003252561809914400e-01
3.671276756987922885e-01
3.210993343150333468e-01
3.840137050534275232e-01
3.603078081131988464e-01
3.311650915380861537e-01
3.061952859895896717e-01
2.145941241022086277e-01
3.786097549284773711e-01
2.846250982654444650e-01
2.996556689280537311e-01
2.581993250236694348e-01
4.248005222730673602e-01
3.247444115429327649e-01
3.077729214518800660e-01
1.945582852233620486e-01
2.712322384240136719e-01
3.053409820788183793e-01
3.575523315979223238e-01
4.208902639308175764e-01
3.403491367324189554e-01
3.697748345252920843e-01
3.119296505706025679e-01
2.170416385663942460e-01
3.198288518021545346e-01
4.131093929388637842e-01
3.844599213250027292e-01
3.261436414006043671e-01
3.211703324582799723e-01
3.436754302590560584e-01
4.740180154610855734e-01
4.497375594411602284e-01
4.581436591259993030e-01
3.923917897997454829e-01
3.171674326638993513e-01
2.975133858127935182e-01
5.159477814755961678e-01
5.950085669733167215e-01
3.413771939456249904e-01
4.012974049383367658e-01
4.494722771906031755e-01
3.848053040504532674e-01
5.244857637600561784e-01
3.237890718032984672e-01
5.235020045390197385e-01
4.052668284004248833e-01
4.693540844827100988e-01
3.881004473919697495e-01
4.491775640856381924e-01
3.301851755197287575e-01
5.481695117058692501e-01
3.553118444927133579e-01
2.859446322015847808e-01
3.015256913451861420e-01
4.078204355414111193e-01
3.463899463041242854e-01
3.561699916094245855e-01
2.823323233543241217e-01
2.880461571267346477e-01
3.905846745713307810e-01
3.839085226103965409e-01
3.815067220489082866e-01
4.095092205215323800e-01
3.119579689167318315e-01
3.637598148775719742e-01
3.096854213950377410e-01
2.797994492914790410e-01
2.213452185508633652e-01
2.604450712536528489e-01
3.254958591638218435e-01
3.774478935159416570e-01
2.862713045924177302e-01
2.942047912539815235e-01
3.982616779039704902e-01
2.845812048253189563e-01
3.417494791027940737e-01
3.037873160765417468e-01
3.248725520690927127e-01
3.294055106830925395e-01
2.783468191148824600e-01
3.371529053404245801e-01
3.771916124570992568e-01
2.418134179456105648e-01
3.932158537637464035e-01
2.616547704486931747e-01
3.574564537630640637e-01
4.163549791673167300e-01
3.335497999500701694e-01
2.948071629967604634e-01
4.104694148352960870e-01
2.630351888336783239e-01
3.748430099342069388e-01
3.043055418674743828e-01
2.994981986805083651e-01
3.771256711551927987e-01
3.507012126930204587e-01
3.491289374929523737e-01
2.687862410098231791e-01
2.701410717454080790e-01
2.887840523953660865e-01
1.752877497221685399e-01
2.558397997139313373e-01
2.255905436434432754e-01
1.823721915977376540e-01
2.597641160949036854e-01
2.465185116636545160e-01
1.776113714140616917e-01
1.322488146446922919e-01
2.204196130803103282e-01
1.917198763955214602e-01
1.496941314011743795e-01
3.489132123546043740e-01
1.550257685958215115e-01
2.328082840356823779e-01
1.455878696261019289e-01
6.598347296814743856e-02
2.873559985006761686e-01
2.458518168139430249e-01
2.437303679111665344e-01
2.880844880354087034e-01
2.042485209079935027e-01
2.865143367080055237e-01
1.559297307553172418e-01
2.276168226673629391e-01
1.473841632024032178e-01
2.681859931458415169e-01
2.550077459330833407e-01
3.257722664789913236e-01
2.138489469693154454e-01
2.135524133994512463e-01
1.815081785369981882e-01
2.913363447551203800e-01
1.805539513075836711e-01
2.525665019571268766e-01
2.279735327313119897e-01
2.229456098278311815e-01
2.459493128436192055e-01
1.023875199621956389e-01
1.987538509265083797e-01
1.946121912176487223e-01
2.369429652913827566e-01
1.826570944173809830e-01
1.800974190600322933e-01
1.805541535809259690e-01
2.366897183413817496e-01
1.775270231881730387e-01
1.337892317108558826e-01
1.049396100464324855e-01
1.560673781627610612e-01
8.257489035503273733e-02
1.173107842915632748e-02
1.078110906594152985e-01
1.765527708372403026e-01
2.339628635838019721e-01
1.960165790655979956e-01
9.131838294296279468e-02
1.952944611357398941e-02
1.189810612232191644e-01
4.199368457763041906e-02
2.150707825993318223e-01
5.986549589558232132e-02
7.508407988425780388e-04
1.211208159181986765e-01
9.168581352639082471e-02
1.538839323013105886e-01
9.787155235978539647e-02
4.461677281163534126e-02
2.504302870208896525e-02
1.583247551448293544e-01
7.497839204412870551e-02
1.425089571115704112e-01
1.434506433583142559e-01
1.765930233481076694e-01
1.084067873575734753e-01
3.581057530421527524e-02
1.519556549967898684e-01
1.567206217940134705e-01
2.228058385522270757e-01
7.288657627174133236e-02
6.071595660313122700e-02
1.138678798677650317e-01
1.429937065690455311e-01
1.361575559346173137e-01
1.794159582146639398e-01
1.776534443864141721e-01
9.162260292129198458e-02
1.102326129238666574e-01
1.784349296909015781e-01
1.266355110131280881e-01
9.461848199675593207e-02
2.065961120527599060e-01
-6.550529741691368812e-02
1.215142386998847579e-01
3.000794327955880192e-02
1.141957658953179910e-01
9.099059805006370905e-02
6.648683162822732751e-02
4.266432377003048781e-02
8.624231884859434594e-02
2.103330216438423772e-01
9.002554916387750517e-02
8.881089425811372617e-02
1.834529411713808900e-01
4.490673247960685899e-02
-2.027300505801343800e-02
-2.305417035664114600e-03
9.183134961649130901e-03
2.363611243277097262e-02
1.202657029076884543e-01
1.584613911444887613e-02
-2.369295140753235884e-02
1.098513265798745087e-01
5.069712693184003083e-02
7.157907763693327485e-02
1.662560167836280023e-02
1.097640453820484252e-01
4.353207889654475693e-02
1.458506234536589563e-01
1.840773607688767077e-01
1.237358131954232610e-01
4.766756925283621715e-02
1.805478830881934726e-01
1.205577864541471644e-01
2.151005168681002777e-01
1.017827209336324978e-01
2.186206899483743582e-01
1.456485518074245311e-01
2.048619165791015218e-01
5.564151070544087752e-03
7.856814735416906004e-02
1.144464844235624224e-01
3.173809327781673684e-02
1.976004850206991570e-01
8.647139406795489869e-02
5.350064350040173444e-02
1.080739456194517167e-01
1.726848888858963926e-01
1.100483413830602997e-01
2.113520776664969958e-01
1.417047159937261380e-01
1.096059683119895434e-01
1.792443287916485328e-01
8.130127259757224945e-02
1.238289603349491674e-01
3.412462215602152238e-02
4.603612892672048762e-02
6.060915597615046391e-02
9.370207998675750272e-02
3.587732569879609201e-02
1.298481265941987539e-01
1.190792652200000079e-01
1.685164278841632113e-01
4.934664508361041868e-02
1.218053108485717129e-02
8.680767446602755122e-02
2.211637788447015085e-01
3.001421376895374582e-02
1.842598118476536095e-01
1.208094152131331533e-01
5.595119207979393217e-02
1.851687297173307822e-01
1.306035185579328406e-01
1.160221982819508169e-01
1.699768456067496381e-01
1.443729113104785799e-01
1.683128391786956612e-01
2.917568722334806797e-02
1.847426397033231638e-01
1.886291308528464938e-01
1.504859326692150612e-01
1.142719220247274681e-01
1.550813939250911266e-01
1.263033772355893758e-01
8.572864422573767129e-02
1.368300155932391515e-01
1.511609207539402755e-01
2.465499652594892455e-01
1.073487936087763606e-01
1.324722261937553158e-01
3.932579266996083511e-02
9.802204415727600040e-02
6.487137094139705518e-02
1.845972047514441439e-01
3.472102681895483656e-02
1.006053855640044459e-01
7.465030374160208648e-02
7.738656423292522568e-02
-3.611287368337767756e-02
5.260416547493917960e-02
1.459357807799078754e-01
1.839788533675159599e-01
2.336496424253298176e-02
9.241723602747031752e-02
1.163773912892284157e-01
3.543690457362172475e-01
1.780197624631167930e-01
3.344611451118973400e-01
2.590781040822380810e-01
-1.346021706442424026e-02
6.044379703911317847e-02
-1.106691200717879742e-02
-4.638019687155880977e-02
-1.318537736805306393e-01
1.555933492245323846e-01
3.313550267322640241e-02
1.037215164842882897e-01
1.095414429289973679e-01
1.490635424468416126e-01
9.621098458725929614e-02
1.752525540626564959e-01
1.057626626370424816e-01
2.679295098103955941e-01
1.920569658861135398e-01
1.461551468472036541e-01
7.271727299923569365e-02
2.488720698926142894e-01
2.438160309203072362e-01
1.348270992046456396e-01
1.205873184487967764e-01
1.942846085994120453e-01
1.075947586945161794e-01
1.009767604897319204e-01
1.923526903671086696e-01
2.774161567927404537e-01
1.283183289171292429e-01
5.614921821413876302e-03
2.074188612346737348e-01
1.407834594105291659e-01
1.172186485353674534e-01
9.469939156432294336e-02
1.168673998710907380e-01
5.713247178659930370e-02
9.156809010061062182e-02
1.008638916383148842e-01
2.029319199409944097e-01
1.915090058334769640e-01
9.619945495834447691e-03
1.141086869709134755e-01
3.422171363901105323e-03
1.512982647473329889e-01
6.058012966454751069e-02
3.794466632625748126e-02
8.125515414539430381e-02
4.358851332438828940e-02
-5.676413101854294041e-03
1.437527394650665036e-01
1.670806875769740296e-01
7.292864924665598547e-02
2.127375528637065472e-02
1.274072871659384099e-01
-6.310268776290750559e-02
1.960185006677144792e-01
7.443680349401571306e-04
9.718705740340338739e-02
1.488434684166336508e-01
1.103292998559016747e-01
6.156105701686453990e-03
1.346289719004012397e-01
1.154265015806872352e-01
6.801460656503433011e-02
9.283209984663776115e-02
2.980356570826964702e-01
1.099725897959121790e-01
1.340937551020712215e-01
1.857979027575640263e-01
1.551947684598663502e-01
1.580682718092281114e-01
1.611760083596894821e-01
3.095694172995839266e-01
1.701249101145738685e-01
3.088262629056348629e-01
1.150628130664513860e-01
1.554418460548927516e-01
1.816429941059154451e-01
2.704212211300783819e-01
1.312760793540019844e-01
1.574888581538494980e-01
2.374298386250927595e-01
1.874789001910751596e-01
3.683650864033172212e-02
1.440152910150881427e-01
1.441596134694089759e-02
2.312558316780463086e-01
1.162219437801600419e-01
7.022606736415248907e-02
5.020742176697978731e-02
5.962994791503684056e-02
8.320487248933694513e-02
-1.953713252700550740e-02
3.073623053698937291e-02
3.670351353452916410e-02
4.715531053980925869e-02
4.138140141293755736e-02
4.529155862006850608e-02
-1.589205529770909564e-02
1.267705288598913738e-01
9.535617499452797574e-02
-1.962117734070678576e-02
1.036615422655661201e-01
1.254664688518836169e-02
6.673987630278954697e-02
2.609121217022392081e-02
5.522998440598470005e-02
-4.681326534035656906e-02
1.390547253339804445e-01
1.315826254802011652e-01
1.064532258096312356e-01
1.301135099803398809e-01
2.177321006024668382e-01
2.445023463378638295e-01
2.519957860853107579e-01
2.889911808912475899e-01
1.324383453152425671e-01
1.691625919285341118e-01
2.441975195380312047e-01
1.894324617423548407e-01
2.708357815369801247e-01
2.406873590145575670e-01
2.721048481263652064e-01
9.463324799373162843e-02
3.010252656608470856e-01
2.210358405895545553e-01
8.351384590427013421e-02
3.994384064558220704e-02
3.582792029410187262e-01
4.870412197106055441e-02
1.367231138214353159e-01
2.010122392752151099e-01
2.638289116976244575e-02
1.615048046179848873e-01
7.983367414778508309e-02
1.498987314739794741e-01
5.011680304416454845e-02
1.356853472898489343e-03
-9.642296766161739807e-02
1.001908251616053791e-01
3.665870986071051441e-02
2.464748204766153972e-02
7.386760479426279780e-02
-1.466040938547941153e-02
7.520503997397853801e-02
-4.602136293525704858e-02
6.534792830239277706e-02
8.477846247172393657e-02
1.090123954838565501e-01
3.530236207404335858e-02
1.214280699931769014e-02
2.957184069733986842e-02
1.746041650014966695e-01
-5.714501277284056435e-02
6.177607423670261610e-02
1.677718575737072726e-01
8.827254221194236194e-02
2.196347902594517620e-01
7.065771991450253697e-02
1.713605003755485079e-01
1.419924506509643303e-01
1.965052728632002421e-01
1.732983856936760603e-01
2.340902961574540808e-01
2.605201148799862754e-01
1.372811875770919565e-01
2.052297517027708573e-01
2.137584293887628828e-01
2.533142075123199777e-01
2.947737878023046210e-01
1.048418106051116627e-01
2.346293561628871593e-01
1.704704951157738346e-01
2.091811727902793683e-01
2.098310789023655198e-01
1.467162547074314372e-01
2.195242475627369183e-01
1.167001193325580832e-01
9.240732460718614760e-02
1.702985622804138455e-01
9.225996805489888875e-02
8.948143231407690301e-02
5.232249903786734269e-02
1.387547531049396765e-01
-6.651798181241608265e-02
9.545448012021551243e-02
-1.619819688211310282e-02
1.122268315325455346e-01
-7.443113994958938662e-02
2.636175354206216070e-02
-3.635347851714154643e-02
-4.335589831562358665e-02
7.448767550711821173e-02
-5.064210842702376869e-02
1.080313669599375359e-01
6.575065568487625800e-02
2.674718650270879738e-02
1.194990847415844382e-01
1.443684612880026252e-01
1.429672084694910694e-03
-3.283108043988014479e-03
9.829379917212355267e-02
1.483911839279969946e-01
1.925228027345391446e-01
2.199256601563796543e-01
1.018324803166995585e-01
1.476701785259781907e-01
2.425132857163574407e-01
1.699270862201879284e-01
1.947012928809959131e-01
1.804507916064452822e-01
1.613843505005984058e-01
1.561750890265400926e-01
2.380561798236943138e-01
3.545722298943013717e-01
9.440852166265845113e-02
1.417100762514469370e-01
1.932293455468019339e-01
2.947963413412320044e-01
2.317099366355427903e-01
2.729477235606471708e-01
7.502572414086805530e-02
2.834194445502303261e-01
2.133442735324284079e-01
2.179535905507339888e-01
1.626827468116784914e-01
2.535051540975920004e-01
2.729534883716523974e-01
1.594167309157205059e-01
1.822704478168327702e-01
1.772337259983957081e-01
2.333749544307784363e-01
2.128823810333677624e-01
3.228666015405334822e-02
1.065776242752968228e-01
3.728899540487418118e-02
-2.055315444276084591e-02
3.267684655526270632e-02
-3.822633276938458557e-02
-1.348438879786051370e-02
1.076653522978308075e-01
-9.792353676274667684e-02
1.490151984911536331e-03
4.994952251036854918e-02
-5.567114383645388465e-02
1.451923229717517749e-01
-4.123900057370133432e-02
1.285882634657560253e-01
-5.162768811567886029e-02
5.409735157303818820e-02
1.409226238730919567e-01
6.649289984295891909e-02
6.771959004935679260e-02
8.494958620874226707e-02
2.046889723731439292e-01
1.175770779272351518e-01
1.048939972780780217e-01
1.384938197432142859e-01
2.203396137402252042e-01
1.994874984475595303e-01
1.972998048342587962e-01
1.516235212120320419e-01
9.977302837290746851e-02
2.069041752376488685e-01
3.190520188014824843e-01
2.522952526284318875e-01
1.881235471864586284e-01
1.943935331107024544e-01
2.523415733566718444e-01
1.419527038275693043e-01
2.870106157770113686e-01
1.025481254566504852e-01
2.206129869534614318e-01
3.121518484740177235e-01
1.780452489811235051e-01
1.875218834020879743e-01
1.773396163669993530e-02
6.247199766918587471e-02
1.843987740333029590e-01
2.685175201043593640e-01
1.070695544566352408e-01
1.146105285740871560e-01
1.294005955399927243e-01
1.304669836630367730e-01
2.162323406014641236e-01
9.133901488660611800e-02
1.306381074018408972e-01
2.311384116216808060e-02
1.173693426077541124e-01
1.206062310599411713e-01
2.423787735288041034e-02
6.614023525751711041e-02
1.704370187815399396e-01
1.429552745212160358e-01
3.026007772330074896e-02
4.056805796740470260e-02
1.955649013963688398e-01
8.920492386021761089e-02
1.402211379064396413e-01
9.310415827103313280e-02
1.924938775631799270e-01
2.667527812227532547e-02
3.085747352854929515e-01
4.686528007876918922e-01
1.743271508674639758e-01
9.731782749629913631e-02
3.097401364888295872e-01
3.176572389702455035e-01
2.237183973503076850e-01
9.869076174453317307e-02
2.727732623044617499e-01
1.733489541756273455e-01
1.650624995130164363e-01
1.427789928030028799e-01
2.781961250402454344e-01
3.402593271104298878e-01
4.744866841381782940e-01
-8.535554997278982370e-03
2.083445678414336810e-01
3.058797386759448678e-01
2.015762801104843960e-01
1.351080576867252914e-01
2.251899401392909450e-01
1.801033861427507876e-01
1.433284699083515745e-01
1.794227343916865447e-01
3.207072263142700663e-01
1.245763624807477710e-01
8.884457286390523567e-02
5.490867228125850819e-02
5.987550845393441179e-02
1.031168185927839875e-01
1.863806539273736851e-01
2.349441954945963307e-02
7.489849384560587353e-02
1.239059255570384988e-02
1.063958811553933348e-01
1.020040086015695513e-01
2.011969153686842815e-01
8.333432779766125620e-02
1.568513918876073276e-01
5.340790091074587576e-02
2.099063248021975636e-01
9.904211155021769297e-02
5.194323543134171661e-02
2.372335317800042809e-01
1.776333181337368394e-01
8.985786408417217874e-02
1.546570232330246597e-01
1.898014093766317023e-01
2.239650703971732826e-01
1.842439333438764537e-01
1.504067424315851387e-01
1.389411485254750112e-01
1.257647217774627846e-01
1.295868898223807575e-01
2.321130685630046764e-01
1.522797989591108125e-01
3.115488699087251567e-01
1.498570630436549811e-01
3.177591850252692862e-01
1.778473239430015118e-01
1.348190082487202845e-01
1.898739245782573581e-01
2.447646956149310826e-01
1.469452287886456876e-01
2.045216918368635839e-01
9.327649565346807226e-02
1.586270535176269592e-01
1.838348343369556881e-01
3.108909739754435742e-01
8.356724621954603194e-02
9.520942526025033548e-02
1.352244663287097692e-01
2.032386683437200081e-01
1.664414008459098593e-01
7.769604333478663527e-02
2.737720909362928445e-01
9.286749778453884385e-02
5.427595944859409105e-02
1.227999928888275916e-01
9.805491367365382072e-02
2.394965724343881552e-01
2.186011705118439119e-01
2.602936692217723835e-01
5.307617167275002767e-02
1.580290306667069267e-01
1.205030713594236191e-01
1.748346561372094987e-01
1.935913147319558991e-01
2.074851059451204849e-01
1.137274006269978210e-01
2.343072349401304488e-01
2.023414823597708412e-01
1.154074878306206031e-01
1.678414398026213394e-01
2.193018473846593541e-01
1.526384306234684907e-01
1.565260342825113282e-01
2.637968512930944365e-01
3.112882399605070849e-01
1.425918894214971422e-01
2.866563330031163259e-01
2.167131457182691623e-01
3.245007725998618753e-01
3.170647786468176466e-01
1.615717572891682829e-01
1.577730530160940114e-01
2.447323317876566318e-01
2.707061239515083928e-01
1.179179094849991394e-01
1.544449390272736311e-01
2.493782603863279879e-01
3.481164553700955566e-01
1.959223194190374828e-01
2.153169499629173367e-01
1.744647982700944233e-01
3.214721251556375559e-01
1.847805660606529621e-01
3.015929474241330066e-01
2.545441341033860549e-01
1.442292968269155429e-01
2.642959621955796035e-01
1.288331160469446957e-01
1.706382813336267956e-01
1.756365711021368181e-01
2.262193121331849688e-01
1.734395728899026379e-01
1.207004907062689814e-01
2.285008608461276403e-01
2.720815866256903748e-01
1.707522626901385454e-01
2.167880882021855360e-02
2.450138970901528657e-01
1.696306537862962704e-01
1.050866631880078561e-01
2.514776614334572891e-01
2.330491922775976832e-01
1.736992926048146479e-01
2.370549239072432535e-01
2.628180477792113612e-01
2.274595546922304479e-01
1.551591682490091051e-01
2.115917722662575273e-01
3.391318522634904076e-01
2.827417257707925402e-01
1.501514727386812353e-01
4.309859576932651981e-01
4.103239798828733353e-01
3.433056735258948056e-01
4.686933567123785505e-01
3.807240231085545767e-01
4.283132112135624725e-01
3.787455818669832053e-01
4.039292920842692536e-01
6.107823931608794554e-01
4.865388724224450900e-01
5.553000720338501228e-01
9.023999998065401762e-01
1.026681649185273937e+00
2.003429452086732176e+00
4.566083090317814452e+00
7.727592950078856049e+00
1.035215454514276701e+01
1.098606928753439149e+01
1.078246157041692399e+01
1.086407596305050660e+01
1.089434210899265487e+01
1.090138781541185509e+01
1.090569594655881147e+01
1.088362159108098304e+01
1.099316920336689485e+01
1.121235059663020373e+01
1.097948355201671156e+01
1.107053038222205110e+01
1.119121995013953530e+01
1.124695743982007912e+01
1.123312655579431762e+01
1.130851485594502392e+01
1.129949637195897516e+01
1.142012100994390700e+01
1.136483651271506368e+01
1.133610218719327989e+01
1.134933423926745100e+01
1.129067722892149739e+01
1.140269450466880663e+01
1.132178119345029899e+01
1.141033732370615894e+01
1.135553363159257856e+01
1.139074294766314566e+01
1.148276736773765094e+01
1.147567483490235851e+01
1.135624968127758549e+01
1.154114989237047517e+01
1.134992639617481558e+01
1.149892794166981425e+01
1.166642227941836651e+01
1.150059993791711932e+01
1.148786649105935531e+01
1.145813444940647940e+01
1.151270957199268352e+01
1.154958997407267951e+01
1.148742027478063754e+01
1.145561502656333452e+01
1.146366947303301842e+01
1.139497876588142589e+01
1.146727500571164349e+01
1.146947483575766391e+01
1.142687736351787997e+01
1.144908754593126332e+01
1.148625780654978001e+01
1.149770357761275896e+01
1.149932187013221530e+01
1.147245524087479751e+01
1.143027323927218575e+01
1.148955062374109559e+01
1.155120260292423851e+01
1.145749597177057488e+01
1.147895096449760288e+01
1.148894430765469998e+01
1.151517994340845163e+01
1.148581351187829824e+01
1.152254777104963601e+01
1.151018195705461444e+01
1.142812893341526959e+01
1.144066900640423334e+01
1.152645084866615477e+01
1.149005853355845908e+01
1.166111269007796380e+01
1.150104665987438146e+01
1.147030203496377077e+01
1.147281538959621727e+01
1.136214455021265479e+01
1.145904185022608779e+01
1.161981068117949434e+01
1.137443319671294262e+01
1.146386547646522658e+01
1.150388385505377897e+01
1.149162231325630401e+01
1.143304388633206159e+01
1.146518298766125099e+01
1.150213347765980565e+01
1.149045529385992737e+01
1.146409960853360666e+01
1.149441430021573929e+01
1.132640072529960129e+01
1.140745744872824652e+01
1.137919472485821082e+01
1.145367350031175846e+01
1.147781266799428401e+01
1.140791125027923059e+01
1.137523652759810311e+01
1.127950917995344327e+01
1.139324558177456126e+01
1.138910473115899435e+01
1.129043045473252782e+01
1.135198554471207899e+01
1.131953372789495837e+01
1.139151593745562785e+01
1.141912339495539186e+01
1.141217073454347464e+01
1.143278659389936358e+01
1.140170589087006725e+01
1.131050755749524228e+01
1.133515817479609922e+01
1.147851122098690801e+01
1.135257385841653033e+01
1.143639182316610281e+01
1.129474829502991895e+01
1.150297746560236334e+01
1.141416464974058798e+01
1.143803954654004329e+01
1.137931103236351937e+01
1.135812182757180722e+01
1.145196064473549491e+01
1.130517076231738294e+01
1.145003853678276329e+01
1.151818806005626250e+01
1.136557825118855192e+01
1.137914759503527762e+01
1.146430683816445750e+01
1.127868602622468686e+01
1.139417432248930773e+01
1.123576693844984398e+01
1.151761613053848343e+01
1.133664215742643044e+01
1.135845264657409359e+01
1.127265704968050919e+01
1.145991213378071905e+01
1.144609490324745948e+01
1.149150347732798672e+01
1.135735480485559989e+01
1.131017208619761050e+01
1.128649460874530241e+01
1.149433298609891985e+01
1.143763904417233057e+01
1.135677802076524934e+01
1.144723663840242800e+01
1.136643518466426706e+01
1.130323085425992247e+01
1.143012021904882936e+01
1.137672415116381863e+01
1.130025520257831140e+01
1.133584034359964754e+01
1.143028810640350734e+01
1.141191202619520162e+01
1.133939237481925488e+01
1.143909046070436375e+01
1.152038394575851754e+01
1.145875290192902796e+01
1.145859442030847575e+01
1.148042564252969555e+01
1.124700072644398396e+01
1.120263325623903050e+01
1.150747755470223943e+01
1.133620656053292564e+01
1.135442901370079127e+01
1.143086549732002588e+01
1.139822152027640279e+01
1.137269232619521198e+01
1.148545690295249955e+01
1.126652784640875105e+01
1.149928181989414355e+01
1.138140436519017840e+01
1.133332203326260235e+01
1.136514164293034668e+01
1.139644080179363428e+01
1.137522944800881497e+01
1.132565453679921497e+01
1.138563664361408279e+01
1.129111292695097113e+01
1.138162160738310114e+01
1.130666152112775436e+01
1.132583911175547087e+01
1.132364777721508275e+01
1.125951591973170629e+01
1.136908649011068917e+01
1.130710571466310554e+01
1.132132992032876295e+01
1.115133325187865587e+01
1.117100985227466303e+01
1.127522845692342734e+01
1.135242781664501166e+01
1.111876259913104370e+01
1.139056049658413095e+01
1.138154150691115873e+01
1.146076401040330595e+01
1.154033452618429578e+01
1.131286779076393145e+01
1.144744083392707168e+01
1.124189179283331086e+01
1.139246419760759998e+01
1.131561790702172310e+01
1.152198747228417730e+01
1.131770223866007896e+01
1.145102785854030536e+01
1.133136381941093163e+01
1.131987081738935430e+01
1.135652214425604001e+01
1.130502815920208626e+01
1.131099119444801460e+01
1.140773446286756254e+01
1.125811385803628717e+01
1.125992340054947149e+01
1.124942639532112665e+01
1.132886735465611849e+01
1.138520923881970326e+01
1.124828162605615134e+01
1.131908811844402685e+01
1.122103462068851876e+01
1.139391126525173448e+01
1.121260020265289192e+01
1.121624163894725967e+01
1.118757345699535932e+01
1.115610772555381836e+01
1.114098056909351975e+01
1.118786614736340290e+01
1.119471645717197994e+01
1.119219076383292766e+01
1.118935296183101968e+01
1.119245564153718320e+01
1.123952427770300311e+01
1.115124415021460536e+01
1.124282538812560261e+01
1.118770453049749847e+01
1.127508130264658348e+01
1.105648053667551522e+01
1.128841782920227033e+01
1.127947084904779551e+01
1.116513045729506359e+01
1.129836030046739914e+01
1.118086301960348372e+01
1.133368612631972638e+01
1.140547475973987446e+01
1.119016327116894693e+01
1.122384552025358317e+01
1.129306446575710687e+01
1.118140086596669036e+01
1.116060245439217447e+01
1.111770753835021885e+01
1.124797659698174002e+01
1.115554944952637051e+01
1.128764049051567753e+01
1.113587649006435853e+01
1.105923651887803594e+01
1.133509921194332115e+01
1.130153175330545601e+01
1.108601040554470707e+01
1.113954199695813152e+01
1.120423627707909198e+01
1.115320489248781044e+01
1.116367893962339863e+01
1.110082434082914737e+01
1.108859121852300333e+01
1.106678932602153864e+01
1.119129094828573123e+01
1.109146765484127428e+01
1.110782443448286649e+01
1.123411648437421029e+01
1.108225468447899864e+01
1.109678179534268772e+01
1.122527731621769576e+01
1.115313632162584234e+01
1.096395336476531135e+01
1.107841127767095557e+01
1.111532050378477976e+01
1.092903734588894693e+01
1.091708487865075838e+01
1.099564513732296334e+01
1.108715922028585865e+01
1.104243069113582365e+01
1.084841925345845048e+01
1.086669106146013597e+01
1.108084523978513047e+01
1.108102091468424355e+01
1.106041729290171460e+01
1.105524818280348143e+01
1.115480852014750290e+01
1.114480445647039453e+01
1.104027657499070791e+01
1.111328370652279318e+01
1.105938873000282641e+01
1.113060917597517196e+01
1.103614330965104706e+01
1.107247261643040659e+01
1.114557400761146333e+01
1.106929458969193192e+01
1.112244469248638268e+01
1.111096382689947326e+01
1.109067898881533587e+01
1.107609766854137590e+01
1.106839123435230299e+01
1.106757162041450115e+01
1.106349054174951974e+01
1.112215918284531035e+01
1.106809459964196307e+01
1.110736213742810641e+01
1.125279486295935172e+01
1.098940670612974913e+01
1.105481400182485174e+01
1.118930239335224286e+01
1.121286669854622531e+01
1.119194085440348729e+01
1.106944477807940252e+01
1.118496169610606650e+01
1.096173229596027454e+01
1.119498790877464245e+01
1.109035494599434379e+01
1.095746381049872120e+01
1.109949823299390381e+01
1.111006745001005491e+01
1.109112601418882349e+01
1.109455212989285045e+01
1.117864043374053118e+01
1.103707073558829066e+01
1.091963272097972748e+01
1.102587608759884397e+01
1.085952490092106792e+01
1.082898770792643894e+01
1.093293213027045496e+01
1.099154413466940738e+01
1.085464585162833195e+01
1.084267426950704660e+01
1.086261291576763455e+01
1.095450029525744284e+01
1.099069974217689882e+01
1.094015624228759087e+01
1.093619673025005845e+01
1.096484751664663193e+01
1.097819324666753715e+01
1.088821169207362516e+01
1.084693051738872249e+01
1.112676162255139545e+01
1.094687072516085458e+01
1.096677195074722633e+01
1.092953048971313912e+01
1.103778577390378679e+01
1.112493053786242569e+01
1.097030284434325331e+01
1.082789269804375998e+01
1.103570943208701571e+01
1.091145994426198129e+01
1.103438150378191196e+01
1.095453670456182316e+01
1.088236870640143117e+01
1.092392770432056714e+01
1.103733864739751169e+01
1.100214106321584673e+01
1.108764285723909460e+01
1.096787110724439174e+01
1.094280724432267426e+01
1.116133013483267433e+01
1.104869117018157532e+01
1.095255917355620134e+01
1.104954860934097027e+01
1.111617693157962705e+01
1.106974818896723178e+01
1.108135628485001867e+01
1.107320110596654139e+01
1.096114509475999199e+01
1.109010827294429546e+01
1.103766906184782570e+01
1.091240992374118157e+01
1.095626007838508365e+01
1.095555495149165104e+01
1.105094187212274726e+01
1.087872433713302733e+01
1.105340162416301197e+01
1.071929273908707536e+01
1.097754455419294572e+01
1.088969324742398648e+01
1.095246208207258576e+01
1.095247199349659439e+01
1.105221771488814575e+01
1.101761461376738716e+01
1.102326463011808144e+01
1.091575482646677031e+01
1.097842596281289040e+01
1.101906613143826696e+01
1.097762859901184740e+01
1.103457892313100785e+01
1.109223123890048335e+01
1.096774185420521519e+01
1.103761454902706696e+01
1.116248097231385472e+01
1.108514012198992127e+01
1.109653148136493073e+01
1.116510112757460327e+01
1.102837305804019152e+01
1.107832500783898944e+01
1.109678027829260927e+01
1.115890830915340359e+01
1.109348159515757892e+01
1.114185631404542320e+01
1.102955059568168750e+01
1.113739020696337079e+01
1.101142857152165178e+01
1.110085407509783906e+01
1.106023474068494572e+01
1.116663082411841934e+01
1.104475148098523185e+01
1.103206384917219118e+01
1.103220928412694235e+01
1.097844649361707070e+01
1.113377759469848627e+01
1.107611465955117325e+01
1.107924727579223934e+01
1.094629778427465361e+01
1.108009065691414641e+01
1.115967634323833835e+01
1.098877106032406381e+01
1.092718380879593099e+01
1.095701516694104782e+01
1.099224845246915194e+01
1.092507469860403546e+01
1.090833086781513828e+01
1.085486370064508677e+01
1.085002884820311486e+01
1.091464211761781122e+01
1.079023455272505139e+01
1.088176896421901496e+01
1.092752706764336246e+01
1.087834082577457551e+01
1.071476645551334705e+01
1.096303554684283910e+01
1.097022335069351051e+01
1.078793520390652283e+01
1.091156158691103073e+01
1.095793834512325482e+01
1.083431762579309066e+01
1.095869120866469082e+01
1.094513865355713911e+01
1.103945453376805474e+01
1.100404729266542248e+01
1.097332269287407591e+01
1.102445319169047089e+01
1.098039874038253316e+01
1.096785664465897980e+01
1.104769173472854682e+01
1.104908348045490918e+01
1.098420563675155037e+01
1.108886347922283555e+01
1.113856177752603571e+01
1.109096520641799444e+01
1.102864228463157836e+01
1.093801729669336531e+01
1.133775628219887999e+01
1.115804399268085945e+01
1.104248176529639558e+01
1.123590397903151761e+01
1.120838714024959515e+01
1.105335945004785536e+01
1.113312091241233048e+01
1.112039383718715513e+01
1.103051544229515990e+01
1.101095767783047918e+01
1.095554261278178387e+01
1.108340410604382775e+01
1.109417994587444589e+01
1.100949098961430650e+01
1.090334724290243074e+01
1.101204520357695493e+01
1.085857360666218518e+01
1.101546757721435554e+01
1.093210290832533715e+01
1.076979578419061134e+01
1.097968441002288920e+01
1.086848280387441434e+01
1.094388172340436327e+01
1.079667566238654786e+01
1.083287470476452263e+01
1.101355760569869879e+01
1.093255468713302569e+01
1.091450639181722160e+01
1.087508947473993182e+01
1.106809207121989758e+01
1.092638917569122547e+01
1.099812319514680681e+01
1.095109642968535546e+01
1.095035772531473484e+01
1.106030573883650270e+01
1.101796839085947433e+01
1.109519940644829106e+01
1.098411926578617503e+01
1.102108694906297970e+01
1.112487733982313109e+01
1.099130706963218707e+01
1.105009737849287532e+01
1.107980878820295167e+01
1.111855526836119523e+01
1.112605477632795825e+01
1.103534452992930781e+01
1.112001598949208336e+01
1.094077813346737038e+01
1.099386563248257964e+01
1.110724825720865461e+01
1.095236124852024773e+01
1.092156828014827319e+01
1.108869963734627895e+01
1.088322806716083946e+01
1.092375111918775588e+01
1.099531067738870327e+01
1.095885292666788935e+01
1.092281883867413050e+01
1.088649752171651031e+01
1.097089591148609067e+01
1.100722865692563524e+01
1.102482851095236782e+01
1.099758858517005322e+01
1.102381663565443048e+01
1.097934044321922364e+01
1.085574672745325131e+01
1.090661507926367513e+01
1.080722080880896918e+01
1.089512642612829119e+01
1.073251609338273127e+01
1.072323596807662760e+01
1.088455640001581592e+01
1.088676715285380681e+01
1.080572438632721166e+01
1.092259623622318365e+01
1.083770096056084320e+01
1.081943643442512304e+01
1.079142705863492324e+01
1.082134023658533906e+01
1.089379384552938568e+01
1.074387984236661175e+01
1.081499672409011481e+01
1.084799548959324156e+01
1.090773860976792520e+01
1.088200845654520243e+01
1.087709097520626678e+01
1.091592868090587842e+01
1.086593486040147560e+01
1.088499118781291486e+01
1.089124944184926136e+01
1.082659723470430357e+01
1.083472986004660754e+01
1.085953764417839729e+01
1.102614774147803089e+01
1.091337183738425942e+01
1.101890471684842154e+01
1.101716445315110349e+01
1.092479384125932285e+01
1.087817344410643550e+01
1.098196717238279874e+01
1.102020533817255910e+01
1.080318240993775980e+01
1.089221125435256710e+01
1.089285822749178401e+01
1.089900593883288771e+01
1.073784277486424799e+01
1.079455299983913186e+01
1.090893516116205042e+01
1.075931617451899136e+01
1.075652823303774674e+01
1.080638744024734699e+01
1.071755692541355032e+01
1.066216785256629151e+01
1.076493716456111116e+01
1.069204168823588041e+01
1.082373637347552275e+01
1.087559839592975131e+01
1.074046839152132726e+01
1.087389019265046741e+01
1.081583272221435443e+01
1.066471144714775932e+01
1.075435611452201456e+01
1.073232282064764753e+01
1.079168000217762291e+01
1.075707851924461878e+01
1.085349835166243082e+01
1.093012972620861945e+01
1.075255193226546346e+01
1.088156719598450550e+01
1.060886938185189976e+01
1.078129141577325534e+01
1.079955877374858275e+01
1.081841505224908673e+01
1.078556586831139086e+01
1.104417621394984295e+01
1.100244376614177355e+01
1.080181210525028312e+01
1.089345230600971348e+01
1.088793346429285869e+01
1.097296871351127479e+01
1.100735720200018797e+01
1.097050016255971450e+01
1.095671974587806297e+01
1.093796814412931973e+01
1.094506259856603592e+01
1.103183983080402797e+01
1.088229821393757923e+01
1.090760227714132746e+01
1.090465858474511762e+01
1.086524712906244261e+01
1.096024042463943893e+01
1.085165502940802540e+01
1.092744504556572593e+01
1.093284272519957590e+01
1.084409918815382134e+01
1.071030570869134912e+01
1.088393450883922142e+01
1.070216549807593154e+01
1.076967937554722710e+01
1.073825480684419453e+01
1.073766153743127916e+01
1.076522429239677159e+01
1.071187383727662379e+01
1.094897083416328520e+01
1.084219730759424394e+01
1.068074206008295768e+01
1.082046155866398784e+01
1.059774704678794421e+01
1.071405859791697601e+01
1.069718237885022738e+01
1.064214354329913093e+01
1.064393124022823223e+01
1.078876290880063493e+01
1.059018503617938123e+01
1.083637586409542664e+01
1.083467120061152578e+01
1.074764810441336138e+01
1.074644275410800631e+01
1.074387690939770401e+01
1.078447419595277168e+01
1.082330118112870565e+01
1.079000133089222224e+01
1.073395051890706320e+01
1.063808967047455845e+01
1.083509344742230773e+01
1.076143024042315943e+01
1.089781242154821861e+01
1.099802691276122246e+01
1.086167547727040272e+01
1.097484419732397143e+01
1.101242810811064565e+01
1.109928513741313516e+01
1.097062951672919517e+01
1.099979832664141455e+01
1.098763043767566749e+01
1.082985819374913561e+01
1.096967326675555832e+01
1.087392993947719866e+01
1.103280862175932597e+01
1.083743426239633934e+01
1.097559473471474156e+01
1.084708889787143349e+01
1.080881594096410936e+01
1.090371952805804767e+01
1.077613899327558755e+01
1.084136393903091999e+01
1.082513954767805942e+01
1.081451106440213117e+01
1.070266288965321344e+01
1.081570498622999033e+01
1.080534249316047202e+01
1.065140384576071142e+01
1.081876539068192322e+01
1.073121779820622734e+01
1.062947320590877709e+01
1.078401594437597488e+01
1.092531166250512698e+01
1.071190812271090387e+01
1.066008392547485606e+01
1.084593381263227840e+01
1.079995745565007859e+01
1.074353830284833577e+01
1.085906897550091976e+01
1.085749558779039425e+01
1.099025443613831499e+01
1.090469064516059561e+01
1.079435355775544281e+01
1.088915904199415507e+01
1.094171648219098714e+01
1.080545586769345334e+01
1.084957019208266260e+01
1.081301383282312578e+01
1.080772507769924395e+01
1.078740777465325529e+01
1.081496345002868331e+01
1.082540695380632734e+01
1.079703854180586120e+01
1.084188176027345918e+01
1.081066088141481352e+01
1.076109537594625465e+01
1.075277777110062161e+01
1.079183140421121934e+01
1.075784837379593739e+01
1.090242274993649829e+01
1.089774152454257461e+01
1.081155381964660300e+01
1.084243245102825881e+01
1.079896479637671725e+01
1.084266051487694682e+01
1.083273948464410630e+01
1.077307686949364296e+01
1.096880884915162291e+01
1.096640553153626385e+01
1.109183498428842363e+01
1.080511827251639900e+01
1.080471352239567473e+01
1.074553120667353490e+01
1.078996128065617199e+01
1.063626829493454551e+01
1.081789510712822278e+01
1.063999074193564276e+01
1.068178872649799160e+01
1.075493896683021156e+01
1.074669802379749051e+01
1.083522725162528744e+01
1.063022394557010131e+01
1.065128956099666446e+01
1.077258170292755501e+01
1.072797251538825947e+01
1.063201710390026555e+01
1.065488599134503822e+01
1.078388042084554677e+01
1.064729262827863465e+01
1.067277155728680960e+01
1.072355940407789454e+01
1.082144380083083846e+01
1.062005310704596361e+01
1.058845175094096724e+01
1.060962548177062637e+01
1.074543623906716938e+01
1.080638127089128631e+01
1.074655734228516302e+01
1.068560614110560714e+01
1.081825737972672741e+01
1.068352464129801405e+01
1.069699952322204162e+01
1.059507925602097345e+01
1.078809924805976728e+01
1.058256214112803484e+01
1.061506796508038875e+01
1.063438016900196637e+01
1.064978929531152829e+01
1.056706219382581047e+01
1.081423202752286628e+01
1.067101298780536389e+01
1.078863153188678226e+01
1.067589749849473968e+01
1.060560548982915030e+01
1.062150047809801734e+01
1.061250788517161325e+01
1.061574285202052259e+01
1.071132597835941880e+01
1.056213985791429621e+01
1.082690600584720642e+01
1.055438700186226342e+01
1.066533313605038735e+01
1.057254705351848401e+01
1.064343617480215443e+01
1.078936315666369339e+01
1.077095097056341721e+01
1.072486103676961200e+01
1.074136527409860697e+01
1.078282920327253080e+01
1.075999207283212655e+01
1.083749251728551144e+01
1.071485889469508734e+01
1.077192077288535543e+01
1.074171632049062275e+01
1.070474155761823987e+01
1.079168546357248637e+01
1.080716043004215976e+01
1.074289385813258235e+01
1.082371533698519173e+01
1.082031865213751587e+01
1.087951937478976916e+01
1.081035817849144642e+01
1.098711211074674310e+01
1.083217311766103919e+01
1.082860551134548643e+01
1.076223599859790703e+01
1.085698332907916352e+01
1.075402509324243105e+01
1.070804266804247362e+01
1.070762547807714782e+01
1.071438506802965485e+01
1.086353447575789133e+01
1.074219985630105967e+01
1.081462423666100392e+01
1.073384604442142631e+01
1.078897519528020332e+01
1.073585765858660146e+01
1.064738274131312856e+01
1.070183953364785090e+01
1.071089280875216687e+01
1.065904777730533048e+01
1.064011240970201122e+01
1.072288168530063501e+01
1.068937824635767164e+01
1.061767032023399793e+01
1.071660674366326305e+01
1.075325938531126546e+01
1.083953194411035170e+01
1.071165558371333582e+01
1.094771612902217051e+01
1.077931519954537087e+01
1.072307404779744644e+01
1.077105686096136772e+01
1.072464682868560537e+01
1.084599510163455882e+01
1.095722249771073464e+01
1.084574711380117762e+01
1.088463205045984949e+01
1.089583286780341886e+01
1.084266102056340664e+01
1.095918677977909539e+01
1.075647847365623200e+01
1.087963527774629924e+01
1.075185246903728320e+01
1.082716329827533031e+01
1.102907515082711143e+01
1.069991823479517556e+01
1.091605621461278730e+01
1.089525143141242935e+01
1.085779829071842251e+01
1.073980655124823969e+01
1.080820446689620695e+01
1.073645355756439201e+01
1.063580700925411726e+01
1.073016647949219582e+01
1.080302898516871934e+01
1.071309941497629481e+01
1.070659994928848668e+01
1.088399417964785165e+01
1.076218957672842258e+01
1.080226216472974343e+01
1.075528778820365083e+01
1.068930350614012070e+01
1.073383259320785754e+01
1.066577308182829853e+01
1.065453443926857346e+01
1.058038901123455844e+01
1.077128886914738537e+01
1.067968922431395562e+01
1.068406825246903757e+01
1.071015703735790225e+01
1.074856996781938356e+01
1.071505550494645753e+01
1.064992835863051113e+01
1.067007150383133585e+01
1.075801150771393999e+01
1.077586066435481449e+01
1.074862437950439720e+01
1.074404641494285073e+01
1.079598368329589952e+01
1.094118207449084146e+01
1.067560996611224411e+01
1.076395461898145989e+01
1.080576999909765945e+01
1.072613809318368716e+01
1.064914525513842669e+01
1.077719951545064525e+01
1.078170820119220785e+01
1.079104789616833315e+01
1.099667086838566377e+01
1.098671009132406695e+01
1.087450500424095523e+01
1.093580259950903510e+01
1.101614054255943742e+01
1.090404053677190355e+01
1.086834990990287864e+01
1.084382500585264353e+01
1.081829348561923432e+01
1.084183331567068720e+01
1.091167212960828792e+01
1.087960443097305863e+01
1.077225452485903112e+01
1.087303963080570668e+01
1.086483580504129876e+01
1.074998993075550224e+01
1.084280999530476741e+01
1.074245492371750643e+01
1.094668463315328566e+01
1.081345478997403831e+01
1.069015224752401316e+01
1.085854417580871534e+01
1.082574242510093754e+01
1.079216707778786777e+01
1.072325528523298388e+01
1.069149200885369488e+01
1.075903420467190763e+01
1.080370134368516233e+01
1.070750158530066365e+01
1.074625787574227864e+01
1.075544131411642645e+01
1.068235903782373875e+01
1.068464665475141651e+01
1.066817275851619051e+01
1.072764877597828637e+01
1.075091998625303980e+01
1.067969680958823453e+01
1.076312003677722373e+01
1.078197014592073089e+01
1.073812707086518259e+01
1.073658129354572743e+01
1.070411804825319990e+01
1.081178926649630156e+01
1.078504187771108747e+01
1.078530402472001448e+01
1.090376928744444740e+01
1.096309804948797861e+01
1.089543307339535971e+01
1.078269256723769942e+01
1.095561361092821073e+01
1.094451747034268330e+01
1.087129643413668667e+01
1.084487217794886327e+01
1.087989712133830267e+01
1.109918369704216268e+01
1.081840918630599191e+01
1.089378545115560115e+01
1.090714726195541573e+01
1.089504764043711837e+01
1.095744601039546318e+01
1.093134893227608728e+01
1.074275540163355913e+01
1.084600693465952226e+01
1.093095449812636666e+01
1.079739778029179931e+01
1.078059498665749061e+01
1.089972583172359855e+01
1.076344974327239079e+01
1.068236247648043680e+01
1.076970496319569826e+01
1.074841623963621551e+01
1.088338968402743845e+01
1.064853873678194418e+01
1.069297224942197033e+01
1.103032045023378238e+01
1.080456394083086735e+01
1.082708643418355088e+01
1.074910022890698258e+01
1.084671044336363721e+01
1.098651297538855154e+01
1.081295739839900349e+01
1.091276228491753919e+01
1.104816090909334569e+01
1.086615452987987140e+01
1.102118070302610953e+01
1.088302417505009068e+01
1.114733662257110680e+01
1.106906521106325059e+01
1.120508471504847847e+01
1.121375619811828628e+01
1.116193007928517034e+01
1.118452933559583862e+01
1.111861554599047963e+01
1.116664862422392801e+01
1.117065000696722699e+01
1.111937629821068363e+01
1.117552592101009523e+01
1.117443000089993532e+01
1.111511246505923900e+01
1.109134214387268713e+01
1.107755697375637993e+01
1.095560986886065180e+01
1.106154072226611440e+01
1.101610656053431470e+01
1.095762745010317829e+01
1.089314454623181128e+01
1.094867662674470665e+01
1.104723196610238922e+01
1.089916088065766253e+01
1.092734957227755110e+01
1.112900676195614658e+01
1.085125857251703074e+01
1.096675940976432706e+01
1.094999191292899532e+01
1.096117371652031913e+01
1.101346273922822938e+01
1.084543894948101972e+01
1.082454445779822372e+01
1.097411702257109134e+01
1.096585494191743138e+01
1.090864145942271968e+01
1.085176132435195839e+01
1.101577402220699042e+01
1.090934415903120680e+01
1.086345467869456627e+01
1.093188738545993921e+01
1.077151369661597968e+01
1.093517797763765032e+01
1.102925375870180957e+01
1.092025501670339160e+01
1.099856030909643856e+01
1.093843630712453141e+01
1.083483757090991872e+01
1.070988396756003525e+01
1.089478701048579090e+01
1.094177139956751432e+01
1.079665199633879880e+01
1.091209387073959824e+01
1.090722807038654274e+01
1.085476863189956731e+01
1.091041024373911839e+01
1.077296794498459853e+01
1.095324518556614635e+01
1.095275527812553484e+01
1.096302887180396723e+01
1.092174334822727921e+01
1.099586096359704790e+01
1.101608016378797750e+01
1.099183308296910333e+01
1.083775577679681845e+01
1.093733441992807087e+01
1.102584696015584242e+01
1.098567020108969849e+01
1.091742136131883179e+01
1.095435455689275095e+01
1.090887801877416763e+01
1.084388771076731928e+01
1.095517771062151091e+01
1.090575996625401878e+01
1.087244251818622232e+01
1.067145424836690992e+01
1.083868876526558722e+01
1.079703844066926344e+01
1.077273067767334247e+01
1.087257682807318382e+01
1.075092443628024697e+01
1.062599085805165089e+01
1.081712262302173855e+01
1.088961152876141725e+01
1.087340240908601352e+01
1.068761633935326216e+01
1.083906681522522319e+01
1.074911317444092163e+01
1.084885292875317475e+01
1.080197776759026773e+01
1.066385744664762392e+01
1.073438439647171450e+01
1.083724988971288639e+01
1.077168310102500648e+01
1.087599677442091917e+01
1.083462882422209361e+01
1.070224468831743714e+01
1.087451966910016665e+01
1.067869626162918628e+01
1.071671576930749481e+01
1.083411514959489175e+01
1.096661286230618515e+01
1.087922344803682684e+01
1.077791364353749515e+01
1.070990965635255066e+01
1.089442140037161444e+01
1.094349851545359442e+01
1.080587386675557049e+01
1.092527292704557063e+01
1.096665392391135541e+01
1.099992434329366731e+01
1.080100412206418348e+01
1.089167371140263718e+01
1.088030348964911553e+01
1.084947198809294733e+01
1.086928421315148796e+01
1.105422669949481040e+01
1.126936301884625991e+01
1.088489085994774719e+01
1.078848387192478953e+01
1.093047682826051314e+01
1.084907249709614518e+01
1.074462633428089120e+01
1.093535881052355130e+01
1.080169822503037125e+01
1.076728425002826661e+01
1.079268095468468225e+01
1.083193413102395830e+01
1.091584807474731100e+01
1.084624045990228680e+01
1.079594302623765145e+01
1.077925117985240711e+01
1.069376526433356744e+01
1.087130432282089920e+01
1.096606975682379037e+01
1.066815708228365978e+01
1.082236718128809905e+01
1.071833305045604234e+01
1.088888981539982659e+01
1.063463624778824368e+01
1.064647230638522579e+01
1.078938833977013090e+01
1.086697707679170399e+01
1.084797718380414722e+01
1.081639029027826915e+01
1.079888773000787161e+01
1.078586685190908767e+01
1.086170480698984697e+01
1.090905258116966259e+01
1.078853848588058639e+01
1.083991747821139917e+01
1.083641045293195937e+01
1.077320915663777079e+01
1.078162870753711466e+01
1.090288221515404921e+01
1.080919328296976367e+01
1.080421724333039535e+01
1.072618127866742554e+01
1.078861575452107147e+01
1.084139984265411982e+01
1.069971960180143888e+01
1.077863758190508392e+01
1.076716945957450378e+01
1.081159144259880378e+01
1.085871479386043070e+01
1.076716045838325542e+01
1.076244312709208728e+01
1.068597195349491535e+01
1.066456328150062660e+01
1.077580139809768234e+01
1.076633083189074647e+01
1.076435957137599075e+01
1.079726387495688655e+01
1.077231935365126780e+01
1.094729812995717566e+01
1.075393943023787102e+01
1.083910474158883908e+01
1.078875684058279916e+01
1.069718622205352787e+01
1.075269969336676290e+01
1.071179747887371825e+01
1.077422558309935852e+01
1.095709091852656236e+01
1.080268350131117927e+01
1.107691930521431090e+01
1.105422760972718521e+01
1.101207129691033515e+01
1.086989862019458641e+01
1.087980994127373435e+01
1.083477324780407436e+01
1.084486934611646625e+01
1.085034217050865912e+01
1.081368700043875108e+01
1.078789586162857717e+01
1.081072308064612919e+01
1.096062646442229571e+01
1.080186823626298676e+01
1.076684430424461070e+01
1.082938386140035547e+01
1.083567316448522355e+01
1.090785238884892294e+01
1.073318663143387930e+01
1.086686865796578694e+01
1.074804001013891863e+01
1.076518201714517531e+01
1.085694469476349866e+01
1.089118795057526157e+01
1.083404445486103995e+01
1.083658370055259113e+01
1.083047148828481099e+01
1.091180077582409425e+01
1.091356207601010730e+01
1.080156270150001063e+01
1.073530221439682286e+01
1.087847705726170666e+01
1.078384451722987514e+01
1.079746807048307922e+01
1.075850809019776655e+01
1.075469735062514332e+01
1.084494155790381065e+01
1.072632843294597471e+01
1.078602836763607442e+01
1.077776557902221555e+01
1.078396092587178323e+01
1.066472540404817870e+01
1.082384519684781488e+01
1.058157534779047459e+01
1.071142812668685451e+01
1.069984207866366788e+01
1.081692742868376378e+01
1.081677107094278689e+01
1.065852550603861282e+01
1.071699632323885076e+01
1.086040620840503834e+01
1.079347427301103046e+01
1.075974054520981582e+01
1.068966992535193405e+01
1.073819624854702681e+01
1.076343022383919568e+01
1.085078413903079131e+01
1.078769925137719454e+01
1.084857561120594127e+01
1.071309769565063164e+01
1.075623149719570648e+01
1.073866774906077559e+01
1.063022263079049345e+01
1.085260925663945564e+01
1.075328871503039174e+01
1.065372817540884043e+01
1.077036619665008743e+01
1.071696224007954790e+01
1.082926856526540327e+01
1.063779242894271526e+01
1.081009572807538355e+01
1.083748897749176798e+01
1.086681303263745590e+01
1.069890039241490243e+01
1.081150992620430351e+01
1.073030594736484922e+01
1.066818803019792306e+01
1.083216512784341923e+01
1.063103991857661867e+01
1.085646257486654598e+01
1.078652646716997943e+01
1.078464319581308750e+01
1.086777363149596276e+01
1.087438232510475977e+01
1.069291753432251468e+01
1.085362821152466317e+01
1.080004777095635582e+01
1.087275442457441343e+01
1.078538382178030730e+01
1.086240376452868794e+01
1.073003752986675963e+01
1.082346492187131126e+01
1.081676560954404742e+01
1.076997216705147942e+01
1.070613977611175827e+01
1.079127322931889488e+01
1.073185708494334634e+01
1.060497156335471480e+01
1.066630860204269737e+01
1.058149211207309648e+01
1.076223367244833540e+01
1.064674932052260026e+01
1.071209876588065057e+01
1.068568189269438307e+01
1.087587015094568343e+01
1.075081844474531856e+01
1.087086548954458642e+01
1.075566604044237451e+01
1.066338392339151220e+01
1.072901260789922340e+01
1.081774987445286662e+01
1.065092860318024925e+01
1.088378988298483030e+01
1.090836596234162315e+01
1.070778486992905165e+01
1.082608194188080653e+01
1.074179197093683591e+01
1.088849871877268782e+01
1.069908972080535747e+01
1.074441414893551716e+01
1.070939234079360780e+01
1.079560644243025358e+01
1.086960785142975183e+01
1.079491628380870338e+01
1.066016645323646195e+01
1.080793665622217858e+01
1.066639932189644036e+01
1.081999157520581889e+01
1.069716073554033109e+01
1.072145191207376236e+01
1.072842156349742382e+01
1.057432959246460058e+01
1.057351452969557037e+01
1.055234039431069171e+01
1.035825290164228640e+01
9.866697737071010721e+00
6.912283504815236235e+00
4.258577069287249883e-01
2.483734646741860841e-01
2.583892602384993409e-01
1.903900264910131090e-01
1.741894023217955834e-01
1.485097164476145704e-01
2.939875490629989541e-01
2.449642388410393501e-01
2.074379761176081693e-01
2.203429512632729681e-01
1.226828762870358913e-01
1.137610792339535104e-01
2.028598092852775814e-01
2.787194076774076046e-01
1.705284465915166692e-01
9.070276225894879918e-02
3.187119963372455067e-01
1.165894754968432867e-01
2.609661288775213528e-01
3.114261907736961543e-01
2.143333930144472599e-01
1.452006162065330175e-01
3.296920316949162877e-01
4.240055857451596744e-02
1.270068859364483771e-01
1.755487842201768345e-01
1.684988300498272418e-01
2.466682955032796776e-01
3.874496310118047404e-02
7.527077899679712747e-02
1.278725171873486000e-01
2.484657015811823633e-01
1.274237724923860116e-01
1.378223714563537872e-01
3.185846649051563562e-01
1.550509517006304350e-01
8.732903549952231170e-02
1.948593699532281676e-01
2.657223979011176795e-01
2.484642856656852361e-01
9.498621598949819056e-02
1.776077304840266713e-01
9.277890180540337983e-02
1.976931264767120555e-01
2.015393651173075229e-01
2.535010074802394042e-01
1.353767785915670485e-01
2.474924606005364791e-01
2.306065323824953994e-01
1.737778760282376878e-01
7.758196084175927876e-02
2.801491809025004054e-01
1.915010160097975200e-01
1.651174168855077395e-01
3.099449388350550838e-01
2.610207428371251193e-01
1.220933489407461936e-01
2.831721646796092617e-01
2.276183397208519921e-01
2.386038364700422965e-01
1.648441448160852252e-01
2.605807970544006813e-01
1.638371240873863766e-01
2.002041549570974799e-01
2.648862986447900747e-01
0.000000000000000000e+00
2.360002676738090499e-01
2.208669418603192436e-01
9.936504188692518724e-03
1.367109773878568690e-01
2.754956670357617265e-01
1.170031256706733913e-01
1.210590212372143482e-01
2.570219896555164807e-01
1.634652434819496847e-01
2.204228494659880022e-01
1.434072556007697230e-01
8.102173003922075178e-02
1.285200971543591919e-01
1.611711537824545015e-01
3.686297618477429872e-01
2.128063260326325534e-01
1.837337985114317895e-01
1.604990986760307381e-01
1.942639766608921237e-01
1.797314043980023923e-01
1.062189926086103409e-01
1.614947920628928557e-01
2.553140897913735996e-01
1.453801343128300338e-01
1.171181183962293204e-01
2.445572637085697276e-01
2.997034055731876423e-01
8.125191776251139419e-02
2.314462725747588601e-01
2.872581990591219769e-01
1.944257958009956710e-01
1.278064747520307742e-01
2.650614678599279017e-01
1.412089426086224897e-01
1.272705499970001597e-01
1.987935977523106468e-01
8.211360467437045507e-02
2.094282503860830369e-01
2.036743663746723998e-01
2.129399279601728034e-01
1.768985581108519778e-01
1.635613235956620004e-01
2.518473170290148611e-01
2.509568060802935818e-01
1.204754609662683773e-01
1.084175078777501744e-01
1.522203304262310652e-01
1.165329399392376342e-01
1.711975687309712502e-01
1.268139166151850405e-01
1.449574829499248318e-01
2.724367796369268624e-01
1.948046548564097979e-01
2.382731186086220476e-01
9.586550072863064820e-02
2.055999129837817185e-01
1.269443832936403282e-01
1.489686759767575586e-01
2.569738484643952492e-01
1.904133891271175827e-01
1.181811689942847687e-01
1.633158641857497262e-01
2.817820371429495818e-01
1.170980932754095427e-01
2.137124120730221621e-01
2.545428193236285441e-01
3.007011217000007952e-01
2.629628759098188717e-01
8.138390149398977425e-02
7.802939076107895389e-02
1.723245378905937653e-01
1.334715605122048787e-01
1.068491770174996303e-01
1.174179894877444008e-01
9.875437689934551955e-02
1.450296947392081259e-01
1.196827494629824074e-01
1.530260885946923555e-01
1.097355247577621595e-01
2.986000013258079955e-01
2.159207376256966904e-01
2.412754704449600052e-01
3.542999691912820381e-01
1.202904814641041487e-01
2.207086625169951133e-01
1.586450558974846770e-01
1.525686461166310126e-01
1.314046244318943790e-01
1.992688403336255187e-01
2.386848471786282011e-01
1.316930670439699913e-01
1.374931706436098855e-01
2.284841732478118947e-01
1.546723960518148200e-01
1.311834378973688597e-01
9.652511599402280318e-02
2.119331095105619900e-01
1.872173600122699622e-01
1.624091713296788031e-01
2.439756250419127803e-01
1.716783738456792996e-01
2.342696119911072405e-01
9.868469352902498049e-02
1.942454685979095874e-01
4.582364017071138829e-02
1.174168769797776513e-01
2.150179891090531203e-01
3.790176402934767874e-01
2.126801071092870865e-01
7.526673352139523487e-02
1.865221445395921496e-01
1.969205412292863722e-01
2.291606783850175244e-01
5.688620328478932731e-02
1.961445173241609385e-01
9.073128288307896749e-02
2.328331637258188591e-01
5.700787105069626826e-02
1.464453087899939554e-01
6.106619390457435070e-02
1.991100553049254818e-01
1.934563980256671645e-01
1.657961470284005090e-01
1.835344575623164554e-01
1.724590500499624257e-01
5.053348732815599043e-02
2.705219535427931810e-01
2.674907776716878849e-01
1.783122505553292880e-01
2.391359180290703046e-01
1.048120763401465538e-01
1.691149564192950816e-01
2.144350356616303577e-01
1.078218111731482631e-01
2.625089732246565499e-01
8.626254624190288212e-02
3.476102648767696035e-01
7.989445746523615721e-02
1.289001698559639753e-01
2.732402116534031200e-01
2.267704074386319157e-01
2.323893747411913679e-01
1.557103646917474826e-01
1.444585743177557724e-01
4.490275779722828764e-01
1.779127595561940112e-01
3.640114436404404685e-01
1.621164809617164915e-01
1.639332042006336199e-01
1.802601484324304337e-01
1.388221103205586893e-01
1.744639891718304803e-01
8.410539599206379169e-02
6.619181510447580408e-02
3.276701015607581535e-01
2.017666198745619588e-01
3.948043108620080677e-02
2.129928225922467222e-01
1.057548750919843350e-01
2.126964912941720631e-01
9.008218586234695291e-02
1.465988346937628917e-01
2.114286383474061615e-01
9.572178511088047514e-02
1.614492804284914929e-01
1.172541476082336054e-01
1.167329888440451491e-01
1.742285423240751419e-01
