3.00	22.16
584.25	304.86
1222.00	594.48
1846.50	882.80
2468.13	1188.69
3087.13	1468.50
3706.50	1741.95
4319.13	2000.55
4934.38	2281.25
5544.00	2563.80
6149.88	2765.72
6754.63	3060.39
7361.00	3313.89
7962.50	3566.66
8558.88	3837.46
9150.13	4070.68
9752.50	4254.36
10343.63	4512.29
10922.63	4749.69
11515.13	4980.77
12089.00	5149.80
12667.00	5401.27
13250.13	5616.04
13829.00	5773.07
14398.25	5986.70
14965.50	6117.21
15538.63	6374.32
16106.00	6537.54
16659.38	6712.68
17217.25	6878.22
17768.00	6992.03
18324.50	7204.40
18874.50	7288.51
19431.00	7492.90
19968.00	7655.12
20508.63	7719.34
21048.75	7949.20
21583.38	8131.14
22113.13	8072.53
22648.13	8303.50
23174.00	8365.55
23706.63	8548.14
24217.63	8664.81
24740.13	8789.32
25249.75	8796.98
25767.38	8935.01
26275.63	9017.86
26779.50	9062.09
27283.75	9285.97
27784.50	9309.65
28281.38	9410.37
28777.13	9482.84
29269.38	9422.52
29758.25	9562.01
30254.75	9664.85
30718.00	9619.07
31205.38	9682.57
31685.88	9688.30
32163.25	9795.21
32613.13	9802.82
33076.75	9709.58
33545.63	9688.38
33999.63	9672.10
34448.00	9634.77
34885.88	9674.23
35330.63	9644.53
35749.00	9620.64
36191.88	9445.39
36632.63	9359.99
37047.38	9420.37
37441.50	9176.07
37879.63	9102.44
38272.88	9002.45
38694.88	8651.32
39076.88	8389.66
39494.75	8065.88
39846.00	7562.29
40234.00	7040.95
40585.63	6090.13
40851.38	5277.08
41035.88	4502.36
41273.25	3633.23
41437.75	2993.25
41587.00	2504.29
41701.63	2017.44
41796.75	1640.91
41881.88	1431.37
41914.38	1213.92
41973.63	994.33
42006.63	808.95
42022.50	731.28
42040.88	677.70
42056.50	597.31
42063.25	551.70
42064.00	541.45
42069.00	603.84
42090.50	453.61
42093.63	539.38
42097.25	409.79
42103.13	399.02
42109.63	362.12
